# Blender v2.81 (sub 16) OBJ File: ''
# www.blender.org
mtllib double_coude.mtl
o Cylinder.001_Cylinder.003
v 0.000000 -0.008737 -1.113397
v 0.000000 6.991262 -1.113397
v 0.195090 -0.008737 -1.094183
v 0.195090 6.991262 -1.094183
v 0.382683 -0.008737 -1.037277
v 0.382683 6.991262 -1.037277
v 0.555570 -0.008737 -0.944867
v 0.555570 6.991262 -0.944867
v 0.707107 -0.008737 -0.820504
v 0.707107 6.991262 -0.820504
v 0.831470 -0.008737 -0.668968
v 0.831470 6.991262 -0.668968
v 0.923880 -0.008737 -0.496081
v 0.923880 6.991262 -0.496081
v 0.980785 -0.008737 -0.308488
v 0.980785 6.991262 -0.308488
v 1.000000 -0.008737 -0.113398
v 1.000000 6.991262 -0.113398
v 0.980785 -0.008737 0.081693
v 0.980785 6.991262 0.081693
v 0.923880 -0.008737 0.269286
v 0.923880 6.991262 0.269286
v 0.831470 -0.008737 0.442173
v 0.831470 6.991262 0.442173
v 0.707107 -0.008737 0.593709
v 0.707107 6.991262 0.593709
v 0.555570 -0.008737 0.718072
v 0.555570 6.991262 0.718072
v 0.382683 -0.008737 0.810482
v 0.382683 6.991262 0.810482
v 0.195090 -0.008737 0.867388
v 0.195090 6.991262 0.867388
v -0.000000 -0.008737 0.886602
v -0.000000 6.991262 0.886602
v -0.195091 -0.008737 0.867388
v -0.195091 6.991262 0.867388
v -0.382684 -0.008737 0.810482
v -0.382684 6.991262 0.810482
v -0.555571 -0.008737 0.718072
v -0.555571 6.991262 0.718072
v -0.707107 -0.008737 0.593709
v -0.707107 6.991262 0.593709
v -0.831470 -0.008737 0.442172
v -0.831470 6.991262 0.442172
v -0.923880 -0.008737 0.269285
v -0.923880 6.991262 0.269285
v -0.980785 -0.008737 0.081692
v -0.980785 6.991262 0.081692
v -1.000000 -0.008737 -0.113398
v -1.000000 6.991262 -0.113398
v -0.980785 -0.008737 -0.308489
v -0.980785 6.991262 -0.308489
v -0.923879 -0.008737 -0.496082
v -0.923879 6.991262 -0.496082
v -0.831469 -0.008737 -0.668969
v -0.831469 6.991262 -0.668969
v -0.707106 -0.008737 -0.820505
v -0.707106 6.991262 -0.820505
v -0.555569 -0.008737 -0.944868
v -0.555569 6.991262 -0.944868
v -0.382682 -0.008737 -1.037278
v -0.382682 6.991262 -1.037278
v -0.195089 -0.008737 -1.094183
v -0.195089 6.991262 -1.094183
v 0.195090 7.410639 -1.053042
v 0.000000 7.414442 -1.071877
v 0.382683 7.399374 -0.997263
v 0.555570 7.381081 -0.906682
v 0.707107 7.356463 -0.784779
v 0.831470 7.326466 -0.636242
v 0.923880 7.292243 -0.466777
v 0.980785 7.255108 -0.282896
v 1.000000 7.216490 -0.091666
v 0.980785 7.177871 0.099564
v 0.923880 7.140737 0.283444
v 0.831470 7.106513 0.452910
v 0.707107 7.076516 0.601449
v 0.555570 7.051898 0.723351
v 0.382683 7.033606 0.813932
v 0.195090 7.022341 0.869712
v -0.000000 7.018538 0.888546
v -0.195091 7.022341 0.869711
v -0.382684 7.033606 0.813932
v -0.555571 7.051898 0.723351
v -0.707107 7.076516 0.601448
v -0.831470 7.106513 0.452910
v -0.923880 7.140737 0.283444
v -0.980785 7.177871 0.099564
v -1.000000 7.216490 -0.091667
v -0.980785 7.255108 -0.282897
v -0.923879 7.292243 -0.466778
v -0.831469 7.326467 -0.636243
v -0.707106 7.356463 -0.784780
v -0.555569 7.381082 -0.906683
v -0.382682 7.399374 -0.997264
v -0.195089 7.410639 -1.053043
v 0.195090 7.797224 -0.938194
v -0.000000 7.804575 -0.955947
v 0.382683 7.775453 -0.885618
v 0.555570 7.740097 -0.800239
v 0.707107 7.692517 -0.685338
v 0.831469 7.634542 -0.545330
v 0.923879 7.568397 -0.385597
v 0.980785 7.496626 -0.212276
v 1.000000 7.421987 -0.032028
v 0.980785 7.347347 0.148219
v 0.923879 7.275576 0.321540
v 0.831469 7.209432 0.481273
v 0.707107 7.151455 0.621281
v 0.555570 7.103875 0.736182
v 0.382683 7.068520 0.821561
v 0.195090 7.046748 0.874137
v -0.000001 7.039397 0.891891
v -0.195091 7.046748 0.874137
v -0.382684 7.068521 0.821561
v -0.555571 7.103875 0.736181
v -0.707107 7.151455 0.621280
v -0.831470 7.209432 0.481273
v -0.923880 7.275576 0.321539
v -0.980786 7.347347 0.148218
v -1.000000 7.421987 -0.032029
v -0.980785 7.496626 -0.212277
v -0.923879 7.568398 -0.385598
v -0.831469 7.634542 -0.545331
v -0.707106 7.692518 -0.685338
v -0.555569 7.740098 -0.800240
v -0.382682 7.775453 -0.885618
v -0.195089 7.797224 -0.938194
v 0.195090 8.105135 -0.784303
v -0.000000 8.115298 -0.800610
v 0.382683 8.075035 -0.736010
v 0.555570 8.026155 -0.657585
v 0.707107 7.960374 -0.552044
v 0.831469 7.880219 -0.423442
v 0.923879 7.788772 -0.276720
v 0.980785 7.689545 -0.117518
v 1.000000 7.586353 0.048046
v 0.980785 7.483161 0.213611
v 0.923879 7.383934 0.372812
v 0.831469 7.292487 0.519534
v 0.707107 7.212332 0.648136
v 0.555570 7.146551 0.753678
v 0.382683 7.097671 0.832102
v 0.195090 7.067571 0.880395
v -0.000001 7.057407 0.896702
v -0.195091 7.067571 0.880395
v -0.382684 7.097672 0.832102
v -0.555571 7.146551 0.753677
v -0.707107 7.212332 0.648136
v -0.831470 7.292487 0.519534
v -0.923880 7.383934 0.372812
v -0.980786 7.483161 0.213610
v -1.000000 7.586353 0.048045
v -0.980785 7.689546 -0.117519
v -0.923879 7.788773 -0.276721
v -0.831469 7.880219 -0.423443
v -0.707106 7.960375 -0.552045
v -0.555569 8.026155 -0.657586
v -0.382682 8.075035 -0.736010
v -0.195089 8.105135 -0.784303
v 0.195090 8.275181 -0.673895
v -0.000000 8.286731 -0.689251
v 0.382683 8.240975 -0.628417
v 0.555570 8.185428 -0.554565
v 0.707107 8.110675 -0.455177
v 0.831469 8.019587 -0.334072
v 0.923879 7.915666 -0.195905
v 0.980785 7.802904 -0.045984
v 1.000000 7.685637 0.109927
v 0.980785 7.568370 0.265840
v 0.923879 7.455608 0.415760
v 0.831469 7.351687 0.553927
v 0.707107 7.260599 0.675033
v 0.555570 7.185846 0.774421
v 0.382683 7.130299 0.848272
v 0.195090 7.096093 0.893750
v -0.000001 7.084543 0.909106
v -0.195091 7.096093 0.893750
v -0.382684 7.130300 0.848272
v -0.555571 7.185846 0.774420
v -0.707107 7.260600 0.675032
v -0.831470 7.351687 0.553927
v -0.923880 7.455608 0.415759
v -0.980786 7.568370 0.265839
v -1.000000 7.685637 0.109926
v -0.980785 7.802905 -0.045985
v -0.923879 7.915667 -0.195906
v -0.831469 8.019588 -0.334073
v -0.707106 8.110675 -0.455178
v -0.555569 8.185429 -0.554565
v -0.382682 8.240975 -0.628417
v -0.195089 8.275181 -0.673895
v 0.195090 8.493818 -0.492298
v -0.000000 8.507271 -0.506019
v 0.382683 8.453978 -0.451666
v 0.555570 8.389280 -0.385682
v 0.707107 8.302214 -0.296883
v 0.831469 8.196121 -0.188680
v 0.923879 8.075082 -0.065232
v 0.980785 7.943746 0.068715
v 1.000000 7.807161 0.208017
v 0.980785 7.670577 0.347319
v 0.923879 7.539241 0.481266
v 0.831469 7.418201 0.604714
v 0.707107 7.312108 0.712916
v 0.555570 7.225041 0.801716
v 0.382683 7.160344 0.867700
v 0.195090 7.120503 0.908333
v -0.000001 7.107051 0.922052
v -0.195091 7.120503 0.908332
v -0.382684 7.160344 0.867700
v -0.555571 7.225041 0.801716
v -0.707107 7.312109 0.712916
v -0.831470 7.418201 0.604713
v -0.923880 7.539241 0.481266
v -0.980786 7.670577 0.347318
v -1.000000 7.807161 0.208016
v -0.980785 7.943746 0.068715
v -0.923879 8.075082 -0.065233
v -0.831469 8.196121 -0.188681
v -0.707106 8.302214 -0.296883
v -0.555569 8.389281 -0.385682
v -0.382682 8.453979 -0.451666
v -0.195089 8.493818 -0.492298
v 0.195090 8.625016 -0.355842
v -0.000000 8.639614 -0.368336
v 0.382683 8.581783 -0.318840
v 0.555570 8.511576 -0.258752
v 0.707106 8.417093 -0.177887
v 0.831469 8.301965 -0.079353
v 0.923879 8.170617 0.033063
v 0.980785 8.028095 0.155042
v 1.000000 7.879879 0.281896
v 0.980785 7.731662 0.408750
v 0.923879 7.589140 0.530728
v 0.831469 7.457792 0.643146
v 0.707106 7.342664 0.741679
v 0.555570 7.248181 0.822544
v 0.382683 7.177974 0.882632
v 0.195090 7.134741 0.919634
v -0.000001 7.120142 0.932128
v -0.195091 7.134741 0.919634
v -0.382684 7.177975 0.882632
v -0.555571 7.248181 0.822544
v -0.707108 7.342664 0.741679
v -0.831470 7.457792 0.643146
v -0.923880 7.589140 0.530728
v -0.980786 7.731662 0.408750
v -1.000000 7.879879 0.281895
v -0.980785 8.028096 0.155041
v -0.923879 8.170618 0.033062
v -0.831469 8.301966 -0.079354
v -0.707106 8.417094 -0.177888
v -0.555569 8.511577 -0.258753
v -0.382682 8.581783 -0.318840
v -0.195089 8.625017 -0.355842
v 0.195090 8.766552 -0.183016
v -0.000000 8.782318 -0.193999
v 0.382683 8.719858 -0.150490
v 0.555570 8.644032 -0.097670
v 0.707106 8.541986 -0.026587
v 0.831469 8.417643 0.060028
v 0.923879 8.275782 0.158847
v 0.980785 8.121853 0.266071
v 1.000000 7.961772 0.377581
v 0.980785 7.801692 0.489091
v 0.923879 7.647762 0.596315
v 0.831469 7.505901 0.695134
v 0.707106 7.381558 0.781749
v 0.555570 7.279513 0.852833
v 0.382683 7.203686 0.905652
v 0.195090 7.156992 0.938178
v -0.000001 7.141225 0.949161
v -0.195091 7.156992 0.938178
v -0.382684 7.203687 0.905652
v -0.555571 7.279513 0.852833
v -0.707108 7.381558 0.781749
v -0.831470 7.505901 0.695133
v -0.923880 7.647762 0.596314
v -0.980786 7.801692 0.489090
v -1.000000 7.961772 0.377580
v -0.980785 8.121853 0.266070
v -0.923879 8.275783 0.158846
v -0.831469 8.417644 0.060027
v -0.707106 8.541986 -0.026587
v -0.555569 8.644032 -0.097670
v -0.382682 8.719858 -0.150491
v -0.195089 8.766552 -0.183016
v 0.195090 8.912884 0.048862
v -0.000000 8.929925 0.039984
v 0.382683 8.862417 0.075154
v 0.555570 8.780462 0.117851
v 0.707106 8.670170 0.175312
v 0.831469 8.535778 0.245327
v 0.923879 8.382452 0.325208
v 0.980785 8.216083 0.411882
v 1.000000 8.043065 0.502022
v 0.980785 7.870048 0.592162
v 0.923879 7.703678 0.678836
v 0.831469 7.550352 0.758718
v 0.707106 7.415960 0.828733
v 0.555570 7.305669 0.886193
v 0.382683 7.223713 0.928890
v 0.195090 7.173245 0.955183
v -0.000001 7.156204 0.964060
v -0.195091 7.173245 0.955182
v -0.382684 7.223714 0.928890
v -0.555571 7.305669 0.886193
v -0.707108 7.415960 0.828733
v -0.831470 7.550353 0.758717
v -0.923880 7.703678 0.678836
v -0.980786 7.870048 0.592161
v -1.000000 8.043065 0.502021
v -0.980785 8.216084 0.411882
v -0.923879 8.382453 0.325208
v -0.831469 8.535779 0.245327
v -0.707106 8.670171 0.175311
v -0.555569 8.780463 0.117851
v -0.382682 8.862417 0.075154
v -0.195089 8.912885 0.048862
v 0.195090 9.044053 0.331821
v -0.000000 9.062196 0.325491
v 0.382683 8.990324 0.350566
v 0.555570 8.903071 0.381007
v 0.707106 8.785650 0.421973
v 0.831469 8.642571 0.471891
v 0.923879 8.479335 0.528843
v 0.980785 8.302211 0.590637
v 1.000000 8.118010 0.654903
v 0.980785 7.933808 0.719169
v 0.923879 7.756685 0.780963
v 0.831469 7.593448 0.837915
v 0.707106 7.450369 0.887832
v 0.555570 7.332948 0.928799
v 0.382683 7.245695 0.959240
v 0.195090 7.191965 0.977985
v -0.000001 7.173822 0.984315
v -0.195091 7.191965 0.977985
v -0.382684 7.245695 0.959240
v -0.555571 7.332948 0.928799
v -0.707108 7.450369 0.887832
v -0.831470 7.593449 0.837915
v -0.923880 7.756685 0.780963
v -0.980786 7.933808 0.719168
v -1.000000 8.118010 0.654903
v -0.980785 8.302212 0.590637
v -0.923879 8.479335 0.528842
v -0.831469 8.642572 0.471891
v -0.707106 8.785651 0.421973
v -0.555569 8.903072 0.381007
v -0.382682 8.990325 0.350566
v -0.195089 9.044054 0.331821
v 0.195090 9.118344 0.575847
v -0.000000 9.137107 0.571701
v 0.382683 9.062779 0.588126
v 0.555570 8.972546 0.608067
v 0.707106 8.851113 0.634902
v 0.831469 8.703147 0.667602
v 0.923879 8.534333 0.704908
v 0.980785 8.351159 0.745387
v 1.000000 8.160666 0.787484
v 0.980785 7.970171 0.829582
v 0.923879 7.786997 0.870061
v 0.831469 7.618183 0.907368
v 0.707106 7.470217 0.940066
v 0.555570 7.348784 0.966903
v 0.382683 7.258551 0.986843
v 0.195090 7.202986 0.999122
v -0.000001 7.184223 1.003268
v -0.195091 7.202986 0.999122
v -0.382684 7.258552 0.986843
v -0.555571 7.348784 0.966903
v -0.707108 7.470217 0.940066
v -0.831470 7.618184 0.907368
v -0.923880 7.786997 0.870061
v -0.980786 7.970171 0.829581
v -1.000000 8.160666 0.787483
v -0.980785 8.351160 0.745386
v -0.923879 8.534334 0.704907
v -0.831469 8.703148 0.667601
v -0.707106 8.851114 0.634902
v -0.555569 8.972547 0.608067
v -0.382682 9.062779 0.588126
v -0.195089 9.118345 0.575848
v 0.195090 9.167854 0.846687
v -0.000000 9.186987 0.844903
v 0.382683 9.111195 0.851971
v 0.555570 9.019183 0.860550
v 0.707106 8.895358 0.872096
v 0.831469 8.744476 0.886165
v 0.923879 8.572337 0.902217
v 0.980785 8.385554 0.919633
v 1.000000 8.191306 0.937746
v 0.980785 7.997059 0.955859
v 0.923879 7.810275 0.973275
v 0.831469 7.638135 0.989327
v 0.707106 7.487253 1.003396
v 0.555570 7.363428 1.014943
v 0.382683 7.271417 1.023522
v 0.195090 7.214757 1.028805
v -0.000001 7.195625 1.030589
v -0.195091 7.214757 1.028805
v -0.382684 7.271418 1.023522
v -0.555571 7.363428 1.014943
v -0.707108 7.487253 1.003396
v -0.831470 7.638136 0.989327
v -0.923880 7.810276 0.973275
v -0.980786 7.997059 0.955859
v -1.000000 8.191306 0.937745
v -0.980785 8.385554 0.919633
v -0.923880 8.572338 0.902217
v -0.831469 8.744477 0.886165
v -0.707106 8.895360 0.872096
v -0.555570 9.019184 0.860550
v -0.382682 9.111195 0.851971
v -0.195089 9.167856 0.846687
v 0.195090 9.182218 1.046946
v -0.000000 9.201433 1.046958
v 0.382683 9.125312 1.046912
v 0.555570 9.032902 1.046855
v 0.707106 8.908540 1.046780
v 0.831469 8.757003 1.046688
v 0.923879 8.584117 1.046584
v 0.980785 8.396523 1.046470
v 1.000000 8.201433 1.046352
v 0.980785 8.006343 1.046233
v 0.923879 7.818749 1.046119
v 0.831469 7.645863 1.046014
v 0.707106 7.494327 1.045922
v 0.555570 7.369964 1.045848
v 0.382683 7.277554 1.045791
v 0.195090 7.220648 1.045756
v -0.000001 7.201433 1.045745
v -0.195091 7.220648 1.045756
v -0.382684 7.277555 1.045791
v -0.555571 7.369964 1.045848
v -0.707108 7.494327 1.045922
v -0.831470 7.645864 1.046014
v -0.923880 7.818750 1.046118
v -0.980786 8.006343 1.046233
v -1.000000 8.201433 1.046351
v -0.980785 8.396524 1.046469
v -0.923880 8.584118 1.046583
v -0.831469 8.757004 1.046688
v -0.707106 8.908541 1.046780
v -0.555570 9.032903 1.046856
v -0.382682 9.125313 1.046911
v -0.195089 9.182220 1.046947
v 0.195089 9.111073 7.907906
v -0.000001 9.129310 7.906760
v 0.382682 9.057687 7.910974
v 0.555569 8.972628 7.914707
v 0.707105 8.860306 7.916868
v 0.831468 8.724633 7.915049
v 0.923878 8.568094 7.908647
v 0.980784 8.391304 7.901566
v 0.999999 8.197276 7.900557
v 0.980784 8.002186 7.900438
v 0.923878 7.814592 7.900325
v 0.831468 7.641706 7.900220
v 0.707105 7.490170 7.900127
v 0.555569 7.365807 7.900053
v 0.382682 7.273396 7.899997
v 0.195089 7.216491 7.899961
v -0.000002 7.197276 7.899950
v -0.195092 7.216491 7.899961
v -0.382685 7.273397 7.899997
v -0.555572 7.365807 7.900053
v -0.707109 7.490170 7.900127
v -0.831472 7.641706 7.900220
v -0.923881 7.814593 7.900324
v -0.980787 8.002186 7.900438
v -1.000001 8.197276 7.900556
v -0.980787 8.391305 7.901566
v -0.923881 8.568094 7.908647
v -0.831470 8.724634 7.915049
v -0.707107 8.860307 7.916868
v -0.555571 8.972628 7.914707
v -0.382683 9.057688 7.910974
v -0.195090 9.111074 7.907906
v 0.195089 9.111357 7.911233
v -0.000001 9.129160 7.906939
v 0.382682 9.059221 7.923641
v 0.555569 8.975950 7.942608
v 0.707105 8.865552 7.965404
v 0.831468 8.731489 7.988916
v 0.923878 8.576397 8.011352
v 0.980784 8.401631 8.035045
v 0.999999 8.210704 8.065665
v 0.980784 8.018266 8.097725
v 0.923878 7.833223 8.128553
v 0.831468 7.662686 8.156964
v 0.707105 7.513210 8.181868
v 0.555569 7.390538 8.202305
v 0.382682 7.299384 8.217491
v 0.195089 7.243253 8.226842
v -0.000002 7.224299 8.230000
v -0.195092 7.243253 8.226842
v -0.382685 7.299385 8.217491
v -0.555572 7.390538 8.202305
v -0.707109 7.513210 8.181868
v -0.831472 7.662687 8.156964
v -0.923881 7.833223 8.128552
v -0.980787 8.018266 8.097725
v -1.000001 8.210704 8.065664
v -0.980787 8.401632 8.035045
v -0.923881 8.576397 8.011352
v -0.831470 8.731490 7.988916
v -0.707107 8.865554 7.965404
v -0.555571 8.975951 7.942608
v -0.382683 9.059222 7.923641
v -0.195090 9.111359 7.911233
v 0.195089 9.112036 7.913623
v -0.000001 9.129549 7.908167
v 0.382682 9.060745 7.929482
v 0.555569 8.978750 7.954089
v 0.707105 8.869747 7.984618
v 0.831468 8.737465 8.017534
v 0.923878 8.583897 8.050947
v 0.980784 8.411477 8.085939
v 0.999999 8.223213 8.128150
v 0.980784 8.033150 8.172156
v 0.923878 7.850392 8.214472
v 0.831468 7.681961 8.253469
v 0.707105 7.534329 8.287652
v 0.555569 7.413172 8.315704
v 0.382682 7.323144 8.336550
v 0.195089 7.267705 8.349385
v -0.000002 7.248985 8.353719
v -0.195092 7.267705 8.349385
v -0.382685 7.323144 8.336550
v -0.555572 7.413172 8.315704
v -0.707109 7.534329 8.287652
v -0.831472 7.681962 8.253469
v -0.923881 7.850392 8.214471
v -0.980787 8.033150 8.172156
v -1.000001 8.223212 8.128149
v -0.980787 8.411478 8.085939
v -0.923881 8.583897 8.050947
v -0.831470 8.737466 8.017534
v -0.707107 8.869748 7.984618
v -0.555571 8.978751 7.954089
v -0.382683 9.060746 7.929482
v -0.195090 9.112038 7.913622
v 0.195089 9.113838 7.915890
v -0.000001 9.131058 7.909466
v 0.382682 9.063378 7.934630
v 0.555569 8.982738 7.963944
v 0.707105 8.875268 8.000942
v 0.831468 8.744623 8.041924
v 0.923878 8.593215 8.084353
v 0.980784 8.423169 8.128982
v 0.999999 8.237959 8.180596
v 0.980784 8.050480 8.234563
v 0.923878 7.870208 8.286455
v 0.831468 7.704067 8.334280
v 0.707105 7.558443 8.376199
v 0.555569 7.438933 8.410600
v 0.382682 7.350129 8.436164
v 0.195089 7.295444 8.451904
v -0.000002 7.276979 8.457219
v -0.195092 7.295444 8.451904
v -0.382685 7.350130 8.436164
v -0.555572 7.438933 8.410600
v -0.707109 7.558443 8.376199
v -0.831472 7.704068 8.334280
v -0.923881 7.870208 8.286454
v -0.980787 8.050480 8.234563
v -1.000001 8.237958 8.180595
v -0.980787 8.423169 8.128982
v -0.923881 8.593215 8.084353
v -0.831470 8.744624 8.041923
v -0.707107 8.875270 8.000942
v -0.555571 8.982738 7.963943
v -0.382683 9.063379 7.934630
v -0.195090 9.113839 7.915889
v 0.195089 9.115290 7.917725
v -0.000001 9.131996 7.909941
v 0.382682 9.066308 7.940512
v 0.555569 8.987860 7.976493
v 0.707105 8.883432 8.022530
v 0.831468 8.755865 8.074905
v 0.923878 8.608232 8.130242
v 0.980784 8.442573 8.188497
v 0.999999 8.262692 8.253309
v 0.980784 8.079853 8.321357
v 0.923878 7.904042 8.386789
v 0.831468 7.742013 8.447093
v 0.707105 7.599994 8.499949
v 0.555569 7.483441 8.543327
v 0.382682 7.396834 8.575562
v 0.195089 7.343503 8.595408
v -0.000002 7.325495 8.602111
v -0.195092 7.343503 8.595408
v -0.382685 7.396835 8.575562
v -0.555572 7.483441 8.543327
v -0.707109 7.599994 8.499949
v -0.831472 7.742014 8.447093
v -0.923881 7.904042 8.386788
v -0.980787 8.079853 8.321357
v -1.000001 8.262691 8.253308
v -0.980787 8.442574 8.188497
v -0.923881 8.608233 8.130242
v -0.831470 8.755866 8.074905
v -0.707107 8.883434 8.022530
v -0.555571 8.987861 7.976492
v -0.382683 9.066309 7.940511
v -0.195090 9.115292 7.917723
v 0.195089 9.116987 7.920044
v -0.000001 9.132898 7.910598
v 0.382682 9.070312 7.947782
v 0.555569 8.995367 7.991926
v 0.707105 8.895468 8.049179
v 0.831468 8.773383 8.115441
v 0.923878 8.631499 8.187100
v 0.980784 8.473037 8.262191
v 0.999999 8.301624 8.342911
v 0.980784 8.126231 8.428257
v 0.923878 7.957558 8.510358
v 0.831468 7.802108 8.586022
v 0.707105 7.665854 8.652344
v 0.555569 7.554035 8.706771
v 0.382682 7.470945 8.747216
v 0.195089 7.419779 8.772120
v -0.000002 7.402502 8.780529
v -0.195092 7.419779 8.772120
v -0.382685 7.470945 8.747216
v -0.555572 7.554035 8.706771
v -0.707109 7.665854 8.652344
v -0.831472 7.802109 8.586022
v -0.923881 7.957558 8.510357
v -0.980787 8.126231 8.428257
v -1.000001 8.301623 8.342910
v -0.980787 8.473038 8.262192
v -0.923881 8.631500 8.187100
v -0.831470 8.773383 8.115440
v -0.707107 8.895469 8.049179
v -0.555571 8.995368 7.991924
v -0.382683 9.070313 7.947781
v -0.195090 9.116988 7.920043
v 0.195089 9.118930 7.922251
v -0.000002 9.134051 7.911467
v 0.382682 9.074558 7.953973
v 0.555569 9.003164 8.004698
v 0.707105 8.907741 8.071081
v 0.831468 8.791217 8.148693
v 0.923878 8.655692 8.233475
v 0.980784 8.504200 8.322761
v 0.999999 8.341197 8.416405
v 0.980784 8.173686 8.515209
v 0.923878 8.012281 8.610811
v 0.831468 7.863530 8.698918
v 0.707105 7.733149 8.776146
v 0.555569 7.626147 8.839523
v 0.382682 7.546638 8.886620
v 0.195089 7.497677 8.915618
v -0.000002 7.481144 8.925410
v -0.195092 7.497677 8.915618
v -0.382685 7.546638 8.886620
v -0.555572 7.626147 8.839523
v -0.707109 7.733149 8.776146
v -0.831472 7.863531 8.698918
v -0.923881 8.012281 8.610810
v -0.980787 8.173686 8.515209
v -1.000001 8.341197 8.416404
v -0.980787 8.504201 8.322761
v -0.923881 8.655693 8.233475
v -0.831470 8.791217 8.148692
v -0.707107 8.907742 8.071081
v -0.555571 9.003165 8.004697
v -0.382683 9.074558 7.953972
v -0.195090 9.118932 7.922250
v 0.195089 9.130101 7.932575
v -0.000002 9.140325 7.916660
v 0.382682 9.099955 7.979621
v 0.555569 9.051238 8.055677
v 0.707105 8.985711 8.157229
v 0.831468 8.905129 8.279554
v 0.923878 8.811028 8.417326
v 0.980784 8.706105 8.564556
v 0.999999 8.593576 8.715551
v 0.980784 8.477757 8.865240
v 0.923878 8.364002 9.009267
v 0.831468 8.258194 9.143690
v 0.707105 8.165620 9.263548
v 0.555569 8.089671 9.362025
v 0.382682 8.033237 9.435203
v 0.195089 7.998484 9.480263
v -0.000002 7.986750 9.495478
v -0.195092 7.998484 9.480263
v -0.382685 8.033237 9.435203
v -0.555572 8.089671 9.362025
v -0.707109 8.165620 9.263548
v -0.831472 8.258195 9.143690
v -0.923881 8.364002 9.009266
v -0.980787 8.477757 8.865240
v -1.000001 8.593575 8.715549
v -0.980787 8.706106 8.564556
v -0.923881 8.811028 8.417326
v -0.831470 8.905128 8.279553
v -0.707107 8.985711 8.157228
v -0.555571 9.051239 8.055676
v -0.382683 9.099955 7.979620
v -0.195090 9.130103 7.932574
v 0.195089 9.148101 7.939686
v -0.000001 9.148216 7.920471
v 0.382682 9.147768 7.996591
v 0.555569 9.147225 8.089000
v 0.707105 9.146496 8.213360
v 0.831468 9.145607 8.364894
v 0.923878 9.144592 8.537778
v 0.980784 9.143489 8.725367
v 0.999999 9.142344 8.920454
v 0.980784 9.141198 9.115541
v 0.923878 9.140098 9.303131
v 0.831468 9.139082 9.476014
v 0.707105 9.138193 9.627549
v 0.555569 9.137463 9.751910
v 0.382682 9.136923 9.844319
v 0.195089 9.136586 9.901223
v -0.000002 9.136473 9.920437
v -0.195092 9.136586 9.901223
v -0.382685 9.136923 9.844318
v -0.555572 9.137463 9.751910
v -0.707109 9.138193 9.627549
v -0.831471 9.139083 9.476014
v -0.923881 9.140097 9.303132
v -0.980787 9.141198 9.115541
v -1.000001 9.142343 8.920454
v -0.980786 9.143490 8.725367
v -0.923880 9.144592 8.537778
v -0.831470 9.145606 8.364894
v -0.707107 9.146495 8.213359
v -0.555570 9.147225 8.088999
v -0.382683 9.147767 7.996590
v -0.195090 9.148102 7.939684
v 0.195089 9.254959 7.940315
v -0.000001 9.255116 7.921102
v 0.382682 9.254501 7.997220
v 0.555569 9.253757 8.089626
v 0.707105 9.252755 8.213985
v 0.831468 9.251534 8.365517
v 0.923878 9.250140 8.538398
v 0.980784 9.248627 8.725984
v 0.999999 9.247055 8.921068
v 0.980784 9.245481 9.116154
v 0.923878 9.243971 9.303741
v 0.831468 9.242577 9.476621
v 0.707105 9.241355 9.628153
v 0.555569 9.240352 9.752512
v 0.382682 9.239610 9.844919
v 0.195089 9.239149 9.901823
v -0.000002 9.238994 9.921037
v -0.195092 9.239149 9.901823
v -0.382685 9.239610 9.844918
v -0.555572 9.240352 9.752512
v -0.707109 9.241355 9.628153
v -0.831471 9.242578 9.476621
v -0.923881 9.243970 9.303741
v -0.980787 9.245481 9.116154
v -1.000001 9.247053 8.921068
v -0.980786 9.248628 8.725984
v -0.923880 9.250140 8.538398
v -0.831470 9.251533 8.365517
v -0.707107 9.252754 8.213984
v -0.555570 9.253757 8.089625
v -0.382683 9.254500 7.997219
v -0.195090 9.254960 7.940313
v 0.195089 16.254959 7.940315
v -0.000001 16.255117 7.921102
v 0.382682 16.254501 7.997220
v 0.555569 16.253757 8.089626
v 0.707105 16.252756 8.213985
v 0.831468 16.251534 8.365517
v 0.923878 16.250141 8.538398
v 0.980784 16.248627 8.725984
v 0.999999 16.247055 8.921068
v 0.980784 16.245481 9.116154
v 0.923878 16.243971 9.303741
v 0.831468 16.242577 9.476621
v 0.707105 16.241356 9.628153
v 0.555569 16.240353 9.752512
v 0.382682 16.239611 9.844919
v 0.195089 16.239149 9.901823
v -0.000002 16.238995 9.921037
v -0.195092 16.239149 9.901823
v -0.382685 16.239611 9.844918
v -0.555572 16.240353 9.752512
v -0.707109 16.241356 9.628153
v -0.831471 16.242579 9.476621
v -0.923881 16.243971 9.303741
v -0.980787 16.245481 9.116154
v -1.000001 16.247053 8.921068
v -0.980786 16.248629 8.725984
v -0.923880 16.250141 8.538398
v -0.831470 16.251534 8.365517
v -0.707107 16.252754 8.213984
v -0.555570 16.253757 8.089625
v -0.382683 16.254501 7.997219
v -0.195090 16.254961 7.940313
vt 1.000000 0.500000
vt 1.000000 1.000000
vt 0.968750 1.000000
vt 0.968750 0.500000
vt 0.937500 1.000000
vt 0.937500 0.500000
vt 0.906250 1.000000
vt 0.906250 0.500000
vt 0.875000 1.000000
vt 0.875000 0.500000
vt 0.843750 1.000000
vt 0.843750 0.500000
vt 0.812500 1.000000
vt 0.812500 0.500000
vt 0.781250 1.000000
vt 0.781250 0.500000
vt 0.750000 1.000000
vt 0.750000 0.500000
vt 0.718750 1.000000
vt 0.718750 0.500000
vt 0.687500 1.000000
vt 0.687500 0.500000
vt 0.656250 1.000000
vt 0.656250 0.500000
vt 0.625000 1.000000
vt 0.625000 0.500000
vt 0.593750 1.000000
vt 0.593750 0.500000
vt 0.562500 1.000000
vt 0.562500 0.500000
vt 0.531250 1.000000
vt 0.531250 0.500000
vt 0.500000 1.000000
vt 0.500000 0.500000
vt 0.468750 1.000000
vt 0.468750 0.500000
vt 0.437500 1.000000
vt 0.437500 0.500000
vt 0.406250 1.000000
vt 0.406250 0.500000
vt 0.375000 1.000000
vt 0.375000 0.500000
vt 0.343750 1.000000
vt 0.343750 0.500000
vt 0.312500 1.000000
vt 0.312500 0.500000
vt 0.281250 1.000000
vt 0.281250 0.500000
vt 0.250000 1.000000
vt 0.250000 0.500000
vt 0.218750 1.000000
vt 0.218750 0.500000
vt 0.187500 1.000000
vt 0.187500 0.500000
vt 0.156250 1.000000
vt 0.156250 0.500000
vt 0.125000 1.000000
vt 0.125000 0.500000
vt 0.093750 1.000000
vt 0.093750 0.500000
vt 0.062500 1.000000
vt 0.062500 0.500000
vt 0.718750 1.000000
vt 0.687500 1.000000
vt 0.031250 1.000000
vt 0.031250 0.500000
vt 0.000000 1.000000
vt 0.000000 0.500000
vt 0.750000 0.490000
vt 0.796822 0.485388
vt 0.841844 0.471731
vt 0.883337 0.449553
vt 0.919706 0.419706
vt 0.949553 0.383337
vt 0.971731 0.341844
vt 0.985388 0.296822
vt 0.990000 0.250000
vt 0.985388 0.203178
vt 0.971731 0.158156
vt 0.949553 0.116663
vt 0.919706 0.080294
vt 0.883337 0.050447
vt 0.841844 0.028269
vt 0.796822 0.014612
vt 0.750000 0.010000
vt 0.703178 0.014612
vt 0.658156 0.028269
vt 0.616663 0.050447
vt 0.580294 0.080294
vt 0.550447 0.116663
vt 0.528269 0.158156
vt 0.514611 0.203179
vt 0.510000 0.250000
vt 0.514612 0.296822
vt 0.528269 0.341844
vt 0.550447 0.383337
vt 0.580295 0.419706
vt 0.616663 0.449553
vt 0.658156 0.471731
vt 0.703179 0.485389
vt 0.156250 1.000000
vt 0.187500 1.000000
vt 0.187500 1.000000
vt 0.156250 1.000000
vt 0.437500 1.000000
vt 0.406250 1.000000
vt 0.125000 1.000000
vt 0.843750 1.000000
vt 0.812500 1.000000
vt 0.562500 1.000000
vt 0.531250 1.000000
vt 0.281250 1.000000
vt 0.250000 1.000000
vt 0.968750 1.000000
vt 0.937500 1.000000
vt 0.656250 1.000000
vt 0.375000 1.000000
vt 0.093750 1.000000
vt 0.781250 1.000000
vt 0.500000 1.000000
vt 0.218750 1.000000
vt 0.906250 1.000000
vt 0.625000 1.000000
vt 0.343750 1.000000
vt 0.062500 1.000000
vt 0.750000 1.000000
vt 0.468750 1.000000
vt 0.875000 1.000000
vt 0.593750 1.000000
vt 0.312500 1.000000
vt 0.031250 1.000000
vt 1.000000 1.000000
vt 0.000000 1.000000
vt 0.062500 1.000000
vt 0.093750 1.000000
vt 0.093750 1.000000
vt 0.062500 1.000000
vt 0.593750 1.000000
vt 0.562500 1.000000
vt 1.000000 1.000000
vt 0.968750 1.000000
vt 0.125000 1.000000
vt 0.531250 1.000000
vt 0.937500 1.000000
vt 0.500000 1.000000
vt 0.906250 1.000000
vt 0.468750 1.000000
vt 0.875000 1.000000
vt 0.031250 1.000000
vt 0.437500 1.000000
vt 0.843750 1.000000
vt 0.000000 1.000000
vt 0.406250 1.000000
vt 0.812500 1.000000
vt 0.375000 1.000000
vt 0.781250 1.000000
vt 0.343750 1.000000
vt 0.750000 1.000000
vt 0.312500 1.000000
vt 0.718750 1.000000
vt 0.281250 1.000000
vt 0.687500 1.000000
vt 0.250000 1.000000
vt 0.656250 1.000000
vt 0.218750 1.000000
vt 0.625000 1.000000
vt 0.375000 1.000000
vt 0.406250 1.000000
vt 0.406250 1.000000
vt 0.375000 1.000000
vt 0.500000 1.000000
vt 0.468750 1.000000
vt 0.906250 1.000000
vt 0.875000 1.000000
vt 0.031250 1.000000
vt 0.437500 1.000000
vt 0.843750 1.000000
vt 0.000000 1.000000
vt 0.812500 1.000000
vt 0.781250 1.000000
vt 0.343750 1.000000
vt 0.750000 1.000000
vt 0.312500 1.000000
vt 0.718750 1.000000
vt 0.281250 1.000000
vt 0.687500 1.000000
vt 0.250000 1.000000
vt 0.656250 1.000000
vt 0.218750 1.000000
vt 0.625000 1.000000
vt 0.187500 1.000000
vt 0.593750 1.000000
vt 0.156250 1.000000
vt 0.562500 1.000000
vt 1.000000 1.000000
vt 0.968750 1.000000
vt 0.125000 1.000000
vt 0.531250 1.000000
vt 0.937500 1.000000
vt 0.281250 1.000000
vt 0.312500 1.000000
vt 0.312500 1.000000
vt 0.281250 1.000000
vt 0.812500 1.000000
vt 0.781250 1.000000
vt 0.343750 1.000000
vt 0.750000 1.000000
vt 0.718750 1.000000
vt 0.687500 1.000000
vt 0.250000 1.000000
vt 0.656250 1.000000
vt 0.218750 1.000000
vt 0.625000 1.000000
vt 0.187500 1.000000
vt 0.593750 1.000000
vt 0.156250 1.000000
vt 0.562500 1.000000
vt 1.000000 1.000000
vt 0.968750 1.000000
vt 0.125000 1.000000
vt 0.531250 1.000000
vt 0.937500 1.000000
vt 0.093750 1.000000
vt 0.500000 1.000000
vt 0.906250 1.000000
vt 0.062500 1.000000
vt 0.468750 1.000000
vt 0.875000 1.000000
vt 0.031250 1.000000
vt 0.437500 1.000000
vt 0.843750 1.000000
vt 0.000000 1.000000
vt 0.187500 1.000000
vt 0.218750 1.000000
vt 0.218750 1.000000
vt 0.187500 1.000000
vt 0.718750 1.000000
vt 0.687500 1.000000
vt 0.250000 1.000000
vt 0.656250 1.000000
vt 0.625000 1.000000
vt 0.593750 1.000000
vt 0.156250 1.000000
vt 0.562500 1.000000
vt 1.000000 1.000000
vt 0.968750 1.000000
vt 0.125000 1.000000
vt 0.531250 1.000000
vt 0.937500 1.000000
vt 0.093750 1.000000
vt 0.500000 1.000000
vt 0.906250 1.000000
vt 0.062500 1.000000
vt 0.468750 1.000000
vt 0.875000 1.000000
vt 0.031250 1.000000
vt 0.437500 1.000000
vt 0.843750 1.000000
vt 0.000000 1.000000
vt 0.406250 1.000000
vt 0.812500 1.000000
vt 0.375000 1.000000
vt 0.781250 1.000000
vt 0.343750 1.000000
vt 0.750000 1.000000
vt 0.937500 1.000000
vt 0.968750 1.000000
vt 0.968750 1.000000
vt 0.937500 1.000000
vt 0.625000 1.000000
vt 0.593750 1.000000
vt 0.156250 1.000000
vt 0.562500 1.000000
vt 1.000000 1.000000
vt 0.125000 1.000000
vt 0.531250 1.000000
vt 0.093750 1.000000
vt 0.500000 1.000000
vt 0.906250 1.000000
vt 0.062500 1.000000
vt 0.468750 1.000000
vt 0.875000 1.000000
vt 0.031250 1.000000
vt 0.437500 1.000000
vt 0.843750 1.000000
vt 0.000000 1.000000
vt 0.406250 1.000000
vt 0.812500 1.000000
vt 0.375000 1.000000
vt 0.781250 1.000000
vt 0.343750 1.000000
vt 0.750000 1.000000
vt 0.312500 1.000000
vt 0.718750 1.000000
vt 0.281250 1.000000
vt 0.687500 1.000000
vt 0.250000 1.000000
vt 0.656250 1.000000
vt 0.843750 1.000000
vt 0.875000 1.000000
vt 0.875000 1.000000
vt 0.843750 1.000000
vt 0.125000 1.000000
vt 0.093750 1.000000
vt 0.531250 1.000000
vt 0.500000 1.000000
vt 0.906250 1.000000
vt 0.062500 1.000000
vt 0.468750 1.000000
vt 0.031250 1.000000
vt 0.437500 1.000000
vt 0.000000 1.000000
vt 0.406250 1.000000
vt 0.812500 1.000000
vt 0.375000 1.000000
vt 0.781250 1.000000
vt 0.343750 1.000000
vt 0.750000 1.000000
vt 0.312500 1.000000
vt 0.718750 1.000000
vt 0.281250 1.000000
vt 0.687500 1.000000
vt 0.250000 1.000000
vt 0.656250 1.000000
vt 0.218750 1.000000
vt 0.625000 1.000000
vt 0.187500 1.000000
vt 0.593750 1.000000
vt 0.156250 1.000000
vt 0.562500 1.000000
vt 1.000000 1.000000
vt 0.750000 1.000000
vt 0.781250 1.000000
vt 0.781250 1.000000
vt 0.750000 1.000000
vt 0.031250 1.000000
vt 0.000000 1.000000
vt 0.437500 1.000000
vt 0.406250 1.000000
vt 0.812500 1.000000
vt 0.375000 1.000000
vt 0.343750 1.000000
vt 0.312500 1.000000
vt 0.718750 1.000000
vt 0.281250 1.000000
vt 0.687500 1.000000
vt 0.250000 1.000000
vt 0.656250 1.000000
vt 0.218750 1.000000
vt 0.625000 1.000000
vt 0.187500 1.000000
vt 0.593750 1.000000
vt 0.156250 1.000000
vt 0.562500 1.000000
vt 1.000000 1.000000
vt 0.968750 1.000000
vt 0.125000 1.000000
vt 0.531250 1.000000
vt 0.937500 1.000000
vt 0.093750 1.000000
vt 0.500000 1.000000
vt 0.906250 1.000000
vt 0.062500 1.000000
vt 0.468750 1.000000
vt 0.656250 1.000000
vt 0.687500 1.000000
vt 0.687500 1.000000
vt 0.656250 1.000000
vt 0.343750 1.000000
vt 0.312500 1.000000
vt 0.718750 1.000000
vt 0.281250 1.000000
vt 0.250000 1.000000
vt 0.218750 1.000000
vt 0.625000 1.000000
vt 0.187500 1.000000
vt 0.593750 1.000000
vt 0.156250 1.000000
vt 0.562500 1.000000
vt 1.000000 1.000000
vt 0.968750 1.000000
vt 0.125000 1.000000
vt 0.531250 1.000000
vt 0.937500 1.000000
vt 0.093750 1.000000
vt 0.500000 1.000000
vt 0.906250 1.000000
vt 0.062500 1.000000
vt 0.468750 1.000000
vt 0.875000 1.000000
vt 0.031250 1.000000
vt 0.437500 1.000000
vt 0.843750 1.000000
vt 0.000000 1.000000
vt 0.406250 1.000000
vt 0.812500 1.000000
vt 0.375000 1.000000
vt 0.562500 1.000000
vt 0.593750 1.000000
vt 0.593750 1.000000
vt 0.562500 1.000000
vt 0.250000 1.000000
vt 0.218750 1.000000
vt 0.625000 1.000000
vt 0.187500 1.000000
vt 0.156250 1.000000
vt 1.000000 1.000000
vt 0.968750 1.000000
vt 0.125000 1.000000
vt 0.531250 1.000000
vt 0.937500 1.000000
vt 0.093750 1.000000
vt 0.500000 1.000000
vt 0.906250 1.000000
vt 0.062500 1.000000
vt 0.468750 1.000000
vt 0.875000 1.000000
vt 0.031250 1.000000
vt 0.437500 1.000000
vt 0.843750 1.000000
vt 0.000000 1.000000
vt 0.406250 1.000000
vt 0.812500 1.000000
vt 0.375000 1.000000
vt 0.781250 1.000000
vt 0.343750 1.000000
vt 0.750000 1.000000
vt 0.312500 1.000000
vt 0.718750 1.000000
vt 0.281250 1.000000
vt 0.218750 1.000000
vt 0.250000 1.000000
vt 0.250000 1.000000
vt 0.218750 1.000000
vt 1.000000 1.000000
vt 0.968750 1.000000
vt 0.156250 1.000000
vt 0.125000 1.000000
vt 0.531250 1.000000
vt 0.937500 1.000000
vt 0.093750 1.000000
vt 0.500000 1.000000
vt 0.906250 1.000000
vt 0.062500 1.000000
vt 0.468750 1.000000
vt 0.875000 1.000000
vt 0.031250 1.000000
vt 0.437500 1.000000
vt 0.843750 1.000000
vt 0.000000 1.000000
vt 0.406250 1.000000
vt 0.812500 1.000000
vt 0.375000 1.000000
vt 0.781250 1.000000
vt 0.343750 1.000000
vt 0.750000 1.000000
vt 0.312500 1.000000
vt 0.718750 1.000000
vt 0.281250 1.000000
vt 0.687500 1.000000
vt 0.656250 1.000000
vt 0.625000 1.000000
vt 0.187500 1.000000
vt 0.968750 1.000000
vt 1.000000 1.000000
vt 1.000000 1.000000
vt 0.968750 1.000000
vt 0.656250 1.000000
vt 0.625000 1.000000
vt 0.187500 1.000000
vt 0.593750 1.000000
vt 0.156250 1.000000
vt 0.562500 1.000000
vt 0.125000 1.000000
vt 0.531250 1.000000
vt 0.937500 1.000000
vt 0.093750 1.000000
vt 0.500000 1.000000
vt 0.906250 1.000000
vt 0.062500 1.000000
vt 0.468750 1.000000
vt 0.875000 1.000000
vt 0.031250 1.000000
vt 0.437500 1.000000
vt 0.843750 1.000000
vt 0.000000 1.000000
vt 0.406250 1.000000
vt 0.812500 1.000000
vt 0.375000 1.000000
vt 0.781250 1.000000
vt 0.343750 1.000000
vt 0.750000 1.000000
vt 0.312500 1.000000
vt 0.718750 1.000000
vt 0.281250 1.000000
vt 0.687500 1.000000
vt 0.656250 1.000000
vt 0.687500 1.000000
vt 0.687500 1.000000
vt 0.656250 1.000000
vt 0.156250 1.000000
vt 0.125000 1.000000
vt 0.562500 1.000000
vt 0.531250 1.000000
vt 0.937500 1.000000
vt 0.093750 1.000000
vt 0.500000 1.000000
vt 0.906250 1.000000
vt 0.062500 1.000000
vt 0.468750 1.000000
vt 0.875000 1.000000
vt 0.031250 1.000000
vt 0.437500 1.000000
vt 0.843750 1.000000
vt 0.000000 1.000000
vt 0.406250 1.000000
vt 0.812500 1.000000
vt 0.375000 1.000000
vt 0.781250 1.000000
vt 0.343750 1.000000
vt 0.750000 1.000000
vt 0.312500 1.000000
vt 0.718750 1.000000
vt 0.281250 1.000000
vt 0.250000 1.000000
vt 0.218750 1.000000
vt 0.625000 1.000000
vt 0.187500 1.000000
vt 0.593750 1.000000
vt 0.750000 1.000000
vt 0.781250 1.000000
vt 0.781250 1.000000
vt 0.750000 1.000000
vt 0.250000 1.000000
vt 0.218750 1.000000
vt 0.625000 1.000000
vt 0.187500 1.000000
vt 0.593750 1.000000
vt 0.156250 1.000000
vt 0.562500 1.000000
vt 1.000000 1.000000
vt 0.968750 1.000000
vt 0.125000 1.000000
vt 0.531250 1.000000
vt 0.937500 1.000000
vt 0.093750 1.000000
vt 0.500000 1.000000
vt 0.906250 1.000000
vt 0.062500 1.000000
vt 0.468750 1.000000
vt 0.875000 1.000000
vt 0.031250 1.000000
vt 0.437500 1.000000
vt 0.843750 1.000000
vt 0.000000 1.000000
vt 0.406250 1.000000
vt 0.812500 1.000000
vt 0.375000 1.000000
vt 0.343750 1.000000
vt 0.312500 1.000000
vt 0.718750 1.000000
vt 0.281250 1.000000
vt 0.656250 1.000000
vt 0.687500 1.000000
vt 0.687500 1.000000
vt 0.656250 1.000000
vt 0.343750 1.000000
vt 0.312500 1.000000
vt 0.718750 1.000000
vt 0.281250 1.000000
vt 0.250000 1.000000
vt 0.218750 1.000000
vt 0.625000 1.000000
vt 0.187500 1.000000
vt 0.593750 1.000000
vt 0.156250 1.000000
vt 0.562500 1.000000
vt 1.000000 1.000000
vt 0.968750 1.000000
vt 0.125000 1.000000
vt 0.531250 1.000000
vt 0.937500 1.000000
vt 0.093750 1.000000
vt 0.500000 1.000000
vt 0.906250 1.000000
vt 0.062500 1.000000
vt 0.468750 1.000000
vt 0.875000 1.000000
vt 0.031250 1.000000
vt 0.437500 1.000000
vt 0.843750 1.000000
vt 0.000000 1.000000
vt 0.406250 1.000000
vt 0.812500 1.000000
vt 0.375000 1.000000
vt 0.562500 1.000000
vt 0.593750 1.000000
vt 0.593750 1.000000
vt 0.562500 1.000000
vt 0.250000 1.000000
vt 0.218750 1.000000
vt 0.625000 1.000000
vt 0.187500 1.000000
vt 0.156250 1.000000
vt 1.000000 1.000000
vt 0.968750 1.000000
vt 0.125000 1.000000
vt 0.531250 1.000000
vt 0.937500 1.000000
vt 0.093750 1.000000
vt 0.500000 1.000000
vt 0.906250 1.000000
vt 0.062500 1.000000
vt 0.468750 1.000000
vt 0.875000 1.000000
vt 0.031250 1.000000
vt 0.437500 1.000000
vt 0.843750 1.000000
vt 0.000000 1.000000
vt 0.406250 1.000000
vt 0.812500 1.000000
vt 0.375000 1.000000
vt 0.781250 1.000000
vt 0.343750 1.000000
vt 0.750000 1.000000
vt 0.312500 1.000000
vt 0.718750 1.000000
vt 0.281250 1.000000
vt 0.468750 1.000000
vt 0.500000 1.000000
vt 0.500000 1.000000
vt 0.468750 1.000000
vt 1.000000 1.000000
vt 0.968750 1.000000
vt 0.156250 1.000000
vt 0.125000 1.000000
vt 0.531250 1.000000
vt 0.937500 1.000000
vt 0.093750 1.000000
vt 0.906250 1.000000
vt 0.062500 1.000000
vt 0.875000 1.000000
vt 0.031250 1.000000
vt 0.437500 1.000000
vt 0.843750 1.000000
vt 0.000000 1.000000
vt 0.406250 1.000000
vt 0.812500 1.000000
vt 0.375000 1.000000
vt 0.781250 1.000000
vt 0.343750 1.000000
vt 0.750000 1.000000
vt 0.312500 1.000000
vt 0.718750 1.000000
vt 0.281250 1.000000
vt 0.687500 1.000000
vt 0.250000 1.000000
vt 0.656250 1.000000
vt 0.218750 1.000000
vt 0.625000 1.000000
vt 0.187500 1.000000
vt 0.375000 1.000000
vt 0.406250 1.000000
vt 0.406250 1.000000
vt 0.375000 1.000000
vt 0.906250 1.000000
vt 0.875000 1.000000
vt 0.062500 1.000000
vt 0.031250 1.000000
vt 0.437500 1.000000
vt 0.843750 1.000000
vt 0.000000 1.000000
vt 0.812500 1.000000
vt 0.781250 1.000000
vt 0.343750 1.000000
vt 0.750000 1.000000
vt 0.312500 1.000000
vt 0.718750 1.000000
vt 0.281250 1.000000
vt 0.687500 1.000000
vt 0.250000 1.000000
vt 0.656250 1.000000
vt 0.218750 1.000000
vt 0.625000 1.000000
vt 0.187500 1.000000
vt 0.593750 1.000000
vt 0.156250 1.000000
vt 0.562500 1.000000
vt 1.000000 1.000000
vt 0.968750 1.000000
vt 0.125000 1.000000
vt 0.531250 1.000000
vt 0.937500 1.000000
vt 0.093750 1.000000
vt 0.281250 1.000000
vt 0.312500 1.000000
vt 0.312500 1.000000
vt 0.281250 1.000000
vt 0.812500 1.000000
vt 0.781250 1.000000
vt 0.343750 1.000000
vt 0.750000 1.000000
vt 0.718750 1.000000
vt 0.687500 1.000000
vt 0.250000 1.000000
vt 0.656250 1.000000
vt 0.218750 1.000000
vt 0.625000 1.000000
vt 0.187500 1.000000
vt 0.593750 1.000000
vt 0.156250 1.000000
vt 0.562500 1.000000
vt 1.000000 1.000000
vt 0.968750 1.000000
vt 0.125000 1.000000
vt 0.531250 1.000000
vt 0.937500 1.000000
vt 0.093750 1.000000
vt 0.500000 1.000000
vt 0.906250 1.000000
vt 0.062500 1.000000
vt 0.468750 1.000000
vt 0.875000 1.000000
vt 0.031250 1.000000
vt 0.437500 1.000000
vt 0.843750 1.000000
vt 0.000000 1.000000
vt 0.187500 1.000000
vt 0.218750 1.000000
vt 0.218750 1.000000
vt 0.187500 1.000000
vt 0.718750 1.000000
vt 0.687500 1.000000
vt 0.250000 1.000000
vt 0.656250 1.000000
vt 0.625000 1.000000
vt 0.593750 1.000000
vt 0.156250 1.000000
vt 0.562500 1.000000
vt 1.000000 1.000000
vt 0.968750 1.000000
vt 0.125000 1.000000
vt 0.531250 1.000000
vt 0.937500 1.000000
vt 0.093750 1.000000
vt 0.500000 1.000000
vt 0.906250 1.000000
vt 0.062500 1.000000
vt 0.468750 1.000000
vt 0.875000 1.000000
vt 0.031250 1.000000
vt 0.437500 1.000000
vt 0.843750 1.000000
vt 0.000000 1.000000
vt 0.406250 1.000000
vt 0.812500 1.000000
vt 0.375000 1.000000
vt 0.781250 1.000000
vt 0.343750 1.000000
vt 0.750000 1.000000
vt 0.093750 1.000000
vt 0.125000 1.000000
vt 0.125000 1.000000
vt 0.093750 1.000000
vt 0.625000 1.000000
vt 0.593750 1.000000
vt 0.156250 1.000000
vt 0.562500 1.000000
vt 1.000000 1.000000
vt 0.968750 1.000000
vt 0.531250 1.000000
vt 0.937500 1.000000
vt 0.500000 1.000000
vt 0.906250 1.000000
vt 0.062500 1.000000
vt 0.468750 1.000000
vt 0.875000 1.000000
vt 0.031250 1.000000
vt 0.437500 1.000000
vt 0.843750 1.000000
vt 0.000000 1.000000
vt 0.406250 1.000000
vt 0.812500 1.000000
vt 0.375000 1.000000
vt 0.781250 1.000000
vt 0.343750 1.000000
vt 0.750000 1.000000
vt 0.312500 1.000000
vt 0.718750 1.000000
vt 0.281250 1.000000
vt 0.687500 1.000000
vt 0.250000 1.000000
vt 0.656250 1.000000
vt 0.312500 1.000000
vt 0.343750 1.000000
vt 0.343750 1.000000
vt 0.312500 1.000000
vt 0.531250 1.000000
vt 0.500000 1.000000
vt 0.937500 1.000000
vt 0.906250 1.000000
vt 0.062500 1.000000
vt 0.468750 1.000000
vt 0.875000 1.000000
vt 0.031250 1.000000
vt 0.437500 1.000000
vt 0.843750 1.000000
vt 0.000000 1.000000
vt 0.406250 1.000000
vt 0.812500 1.000000
vt 0.375000 1.000000
vt 0.781250 1.000000
vt 0.750000 1.000000
vt 0.718750 1.000000
vt 0.281250 1.000000
vt 0.687500 1.000000
vt 0.250000 1.000000
vt 0.656250 1.000000
vt 0.218750 1.000000
vt 0.625000 1.000000
vt 0.187500 1.000000
vt 0.593750 1.000000
vt 0.156250 1.000000
vt 0.562500 1.000000
vt 1.000000 1.000000
vt 0.968750 1.000000
vt 0.296822 0.485388
vt 0.250000 0.490000
vt 0.203179 0.485389
vt 0.158156 0.471731
vt 0.116663 0.449553
vt 0.080295 0.419706
vt 0.050447 0.383337
vt 0.028269 0.341844
vt 0.014612 0.296822
vt 0.010000 0.250000
vt 0.014611 0.203179
vt 0.028269 0.158156
vt 0.050447 0.116663
vt 0.080294 0.080294
vt 0.116663 0.050447
vt 0.158156 0.028269
vt 0.203178 0.014612
vt 0.250000 0.010000
vt 0.296822 0.014612
vt 0.341844 0.028269
vt 0.383337 0.050447
vt 0.419706 0.080294
vt 0.449553 0.116663
vt 0.471731 0.158156
vt 0.485388 0.203178
vt 0.490000 0.250000
vt 0.485388 0.296822
vt 0.471731 0.341844
vt 0.449553 0.383337
vt 0.419706 0.419706
vt 0.383337 0.449553
vt 0.341844 0.471731
vt 0.750000 1.000000
vt 0.718750 1.000000
vt 0.281250 1.000000
vt 0.687500 1.000000
vt 0.250000 1.000000
vt 0.656250 1.000000
vt 0.218750 1.000000
vt 0.625000 1.000000
vt 0.187500 1.000000
vt 0.593750 1.000000
vt 0.156250 1.000000
vt 0.562500 1.000000
vt 1.000000 1.000000
vt 0.968750 1.000000
vt 0.125000 1.000000
vt 0.531250 1.000000
vt 0.937500 1.000000
vt 0.093750 1.000000
vt 0.500000 1.000000
vt 0.906250 1.000000
vt 0.062500 1.000000
vt 0.468750 1.000000
vt 0.875000 1.000000
vt 0.031250 1.000000
vt 0.437500 1.000000
vt 0.843750 1.000000
vt 0.000000 1.000000
vt 0.406250 1.000000
vt 0.812500 1.000000
vt 0.375000 1.000000
vt 0.781250 1.000000
vn 0.0980 0.0000 -0.9952
vn 0.2903 0.0000 -0.9569
vn 0.4714 0.0000 -0.8819
vn 0.6344 0.0000 -0.7730
vn 0.7730 0.0000 -0.6344
vn 0.8819 0.0000 -0.4714
vn 0.9569 0.0000 -0.2903
vn 0.9952 0.0000 -0.0980
vn 0.9952 0.0000 0.0980
vn 0.9569 0.0000 0.2903
vn 0.8819 0.0000 0.4714
vn 0.7730 0.0000 0.6344
vn 0.6344 0.0000 0.7730
vn 0.4714 0.0000 0.8819
vn 0.2903 0.0000 0.9569
vn 0.0980 0.0000 0.9952
vn -0.0980 0.0000 0.9952
vn -0.2903 0.0000 0.9569
vn -0.4714 0.0000 0.8819
vn -0.6344 0.0000 0.7730
vn -0.7730 0.0000 0.6344
vn -0.8819 0.0000 0.4714
vn -0.9569 0.0000 0.2903
vn -0.9952 0.0000 0.0980
vn -0.9952 0.0000 -0.0980
vn -0.9569 0.0000 -0.2903
vn -0.8819 0.0000 -0.4714
vn -0.7730 0.0000 -0.6344
vn -0.6344 0.0000 -0.7730
vn -0.4714 0.0000 -0.8819
vn 0.9565 -0.0277 0.2903
vn -0.2903 0.0000 -0.9569
vn -0.0980 0.0000 -0.9952
vn 0.0000 -1.0000 0.0000
vn -0.8810 0.1337 -0.4539
vn -0.4695 -0.0746 0.8798
vn -0.7715 0.0619 -0.6333
vn 0.8809 0.0459 -0.4710
vn 0.2889 -0.0751 0.9544
vn -0.9951 -0.0094 0.0980
vn 0.2890 0.0934 -0.9528
vn 0.8809 -0.0443 0.4711
vn -0.6325 -0.0688 0.7715
vn -0.6325 0.0755 -0.7709
vn 0.9565 0.0282 -0.2902
vn 0.0975 -0.0726 0.9926
vn -0.9951 0.0095 -0.0980
vn 0.4696 0.0861 -0.8787
vn 0.7715 -0.0584 0.6336
vn -0.7715 -0.0584 0.6336
vn -0.4696 0.0861 -0.8787
vn 0.9951 0.0095 -0.0980
vn -0.0975 -0.0726 0.9926
vn -0.9565 0.0282 -0.2902
vn 0.6325 0.0755 -0.7709
vn 0.6325 -0.0688 0.7715
vn -0.8809 -0.0443 0.4711
vn -0.2890 0.0934 -0.9528
vn 0.9951 -0.0094 0.0980
vn -0.2889 -0.0750 0.9544
vn -0.8809 0.0459 -0.4710
vn 0.7715 0.0619 -0.6333
vn 0.4695 -0.0746 0.8798
vn -0.9565 -0.0277 0.2903
vn 0.0975 0.0972 -0.9905
vn -0.0975 0.0972 -0.9905
vn -0.4701 0.3941 -0.7897
vn 0.4689 -0.2024 0.8597
vn 0.0976 0.2835 -0.9540
vn -0.7715 0.1803 -0.6101
vn 0.2878 -0.1907 0.9385
vn 0.2890 0.2725 -0.9177
vn -0.6326 0.2200 -0.7426
vn 0.0968 -0.1684 0.9810
vn 0.4697 0.2511 -0.8464
vn -0.4697 0.2511 -0.8464
vn -0.0968 -0.1684 0.9810
vn 0.6326 0.2200 -0.7426
vn -0.2890 0.2725 -0.9177
vn -0.2878 -0.1907 0.9385
vn 0.7715 0.1803 -0.6101
vn -0.0976 0.2835 -0.9540
vn -0.4689 -0.2024 0.8597
vn 0.8810 0.1337 -0.4539
vn -0.6322 -0.1931 0.7503
vn 0.9566 0.0820 -0.2798
vn -0.7714 -0.1664 0.6142
vn 0.9951 0.0276 -0.0945
vn -0.8809 -0.1274 0.4557
vn 0.9951 -0.0273 0.0946
vn -0.9565 -0.0799 0.2804
vn 0.9565 -0.0799 0.2804
vn -0.9951 -0.0273 0.0946
vn 0.8809 -0.1274 0.4557
vn -0.9951 0.0276 -0.0945
vn 0.7714 -0.1664 0.6142
vn -0.9566 0.0820 -0.2798
vn 0.6323 -0.1931 0.7503
vn -0.6320 -0.3703 0.6807
vn -0.0958 -0.2729 0.9573
vn 0.6331 0.3452 -0.6929
vn -0.2894 0.4278 -0.8563
vn -0.2864 -0.3053 0.9082
vn 0.7719 0.2829 -0.5693
vn -0.0977 0.4450 -0.8902
vn -0.4682 -0.3213 0.8231
vn 0.8812 0.2097 -0.4236
vn -0.6322 -0.3051 0.7123
vn 0.9567 0.1287 -0.2612
vn -0.7716 -0.2622 0.5796
vn 0.9952 0.0432 -0.0884
vn -0.8811 -0.2004 0.4284
vn 0.9951 -0.0429 0.0885
vn -0.9566 -0.1256 0.2628
vn 0.9566 -0.1256 0.2628
vn -0.9951 -0.0429 0.0885
vn 0.8811 -0.2004 0.4284
vn -0.9952 0.0432 -0.0884
vn 0.7716 -0.2622 0.5796
vn -0.9567 0.1287 -0.2612
vn 0.6322 -0.3051 0.7123
vn -0.8812 0.2097 -0.4236
vn 0.4682 -0.3213 0.8231
vn 0.0977 0.4450 -0.8902
vn -0.7719 0.2829 -0.5693
vn 0.2864 -0.3053 0.9082
vn 0.2894 0.4278 -0.8563
vn -0.6331 0.3452 -0.6929
vn 0.0958 -0.2729 0.9573
vn 0.4701 0.3941 -0.7897
vn -0.9567 -0.1806 0.2283
vn 0.9568 0.1557 -0.2455
vn -0.7716 -0.3151 0.5525
vn 0.9952 0.0522 -0.0832
vn -0.8813 -0.2404 0.4069
vn 0.9952 -0.0517 0.0835
vn -0.9567 -0.1509 0.2488
vn 0.9567 -0.1509 0.2488
vn -0.9952 -0.0517 0.0835
vn 0.8813 -0.2404 0.4069
vn -0.9952 0.0522 -0.0832
vn 0.7716 -0.3151 0.5525
vn -0.9568 0.1557 -0.2455
vn 0.6320 -0.3704 0.6807
vn -0.8816 0.2542 -0.3977
vn 0.4681 -0.4035 0.7862
vn 0.0979 0.5420 -0.8346
vn -0.7726 0.3434 -0.5341
vn 0.2870 -0.4165 0.8626
vn 0.2899 0.5209 -0.8029
vn -0.6339 0.4195 -0.6498
vn 0.0966 -0.4180 0.9033
vn 0.4709 0.4795 -0.7405
vn -0.4709 0.4795 -0.7405
vn -0.0966 -0.4181 0.9033
vn 0.6339 0.4195 -0.6498
vn -0.2899 0.5209 -0.8029
vn -0.2870 -0.4165 0.8626
vn 0.7726 0.3434 -0.5341
vn -0.0979 0.5420 -0.8346
vn -0.4681 -0.4035 0.7862
vn 0.8816 0.2542 -0.3977
vn -0.9568 0.2081 -0.2028
vn 0.9567 -0.1806 0.2283
vn -0.9952 -0.0615 0.0766
vn 0.8812 -0.2894 0.3737
vn -0.9952 0.0619 -0.0763
vn 0.7717 -0.3820 0.5085
vn -0.9567 0.1841 -0.2253
vn 0.6321 -0.4522 0.6292
vn -0.8815 0.2998 -0.3649
vn 0.4681 -0.4943 0.7325
vn 0.0978 0.6359 -0.7655
vn -0.7723 0.4043 -0.4900
vn 0.2867 -0.5075 0.8126
vn 0.2897 0.6114 -0.7364
vn -0.6335 0.4933 -0.5961
vn 0.0963 -0.5037 0.8585
vn 0.4706 0.5632 -0.6793
vn -0.4706 0.5632 -0.6793
vn -0.0963 -0.5037 0.8585
vn 0.6335 0.4933 -0.5961
vn -0.2897 0.6114 -0.7364
vn -0.2867 -0.5075 0.8126
vn 0.7723 0.4043 -0.4900
vn -0.0978 0.6359 -0.7655
vn -0.4681 -0.4943 0.7325
vn 0.8815 0.2998 -0.3649
vn -0.6321 -0.4522 0.6292
vn 0.9567 0.1841 -0.2253
vn -0.7717 -0.3820 0.5085
vn 0.9952 0.0619 -0.0763
vn -0.8812 -0.2894 0.3737
vn 0.9952 -0.0615 0.0766
vn 0.2898 0.7402 -0.6067
vn 0.6330 -0.5252 0.5687
vn -0.8817 0.3387 -0.3285
vn 0.4692 -0.5823 0.6639
vn 0.0979 0.7174 -0.6897
vn -0.7727 0.4564 -0.4412
vn 0.2878 -0.6087 0.7394
vn 0.2900 0.6898 -0.6634
vn -0.6340 0.5566 -0.5368
vn 0.0968 -0.6132 0.7840
vn 0.4710 0.6355 -0.6118
vn -0.4710 0.6355 -0.6118
vn -0.0968 -0.6132 0.7839
vn 0.6340 0.5567 -0.5368
vn -0.2900 0.6898 -0.6634
vn -0.2878 -0.6087 0.7394
vn 0.7727 0.4564 -0.4412
vn -0.0979 0.7174 -0.6897
vn -0.4692 -0.5823 0.6639
vn 0.8817 0.3387 -0.3285
vn -0.6330 -0.5252 0.5687
vn 0.9568 0.2081 -0.2028
vn -0.7722 -0.4395 0.4588
vn 0.9952 0.0701 -0.0687
vn -0.8816 -0.3308 0.3368
vn 0.9952 -0.0698 0.0690
vn -0.9568 -0.2055 0.2056
vn 0.9568 -0.2055 0.2056
vn -0.9952 -0.0698 0.0690
vn 0.8816 -0.3308 0.3368
vn -0.9952 0.0701 -0.0687
vn 0.7722 -0.4395 0.4588
vn 0.7723 0.5360 -0.3410
vn -0.6337 0.5970 -0.4919
vn 0.0955 -0.6317 0.7694
vn 0.4708 0.6818 -0.5599
vn -0.4708 0.6818 -0.5599
vn -0.0954 -0.6316 0.7694
vn 0.6337 0.5970 -0.4919
vn -0.2898 0.7402 -0.6067
vn -0.2847 -0.6278 0.7244
vn 0.7725 0.4892 -0.4049
vn -0.0979 0.7700 -0.6305
vn -0.4662 -0.6040 0.6464
vn 0.8815 0.3628 -0.3021
vn -0.6309 -0.5491 0.5481
vn 0.9568 0.2227 -0.1871
vn -0.7711 -0.4628 0.4373
vn 0.9952 0.0749 -0.0636
vn -0.8811 -0.3502 0.3179
vn 0.9952 -0.0744 0.0642
vn -0.9567 -0.2184 0.1926
vn 0.9567 -0.2184 0.1926
vn -0.9952 -0.0744 0.0642
vn 0.8811 -0.3502 0.3179
vn -0.9952 0.0749 -0.0636
vn 0.7711 -0.4628 0.4373
vn -0.9568 0.2227 -0.1871
vn 0.6309 -0.5491 0.5481
vn -0.8815 0.3628 -0.3021
vn 0.4662 -0.6040 0.6464
vn 0.0979 0.7700 -0.6305
vn -0.7725 0.4893 -0.4049
vn 0.2847 -0.6278 0.7244
vn 0.9952 0.0885 -0.0430
vn -0.0978 0.8417 -0.5311
vn -0.4670 -0.6851 0.5590
vn 0.8815 0.3979 -0.2544
vn -0.6317 -0.6191 0.4666
vn 0.9567 0.2446 -0.1574
vn -0.7715 -0.5180 0.3694
vn 0.9952 0.0824 -0.0535
vn -0.8812 -0.3897 0.2677
vn 0.9952 -0.0821 0.0540
vn -0.9567 -0.2419 0.1620
vn 0.9567 -0.2419 0.1620
vn -0.9952 -0.0821 0.0540
vn 0.8812 -0.3897 0.2677
vn -0.9952 0.0824 -0.0535
vn 0.7715 -0.5180 0.3694
vn -0.9567 0.2446 -0.1574
vn 0.6317 -0.6191 0.4666
vn -0.8815 0.3979 -0.2544
vn 0.4670 -0.6851 0.5590
vn 0.0978 0.8417 -0.5311
vn -0.7723 0.5360 -0.3410
vn 0.2850 -0.7119 0.6418
vn 0.2897 0.8093 -0.5110
vn -0.6335 0.6535 -0.4143
vn 0.0953 -0.7113 0.6964
vn 0.4706 0.7458 -0.4716
vn -0.4706 0.7458 -0.4716
vn -0.0953 -0.7113 0.6964
vn 0.6335 0.6535 -0.4143
vn -0.2897 0.8093 -0.5110
vn -0.2850 -0.7119 0.6418
vn 0.8813 -0.4465 0.1550
vn -0.8808 -0.4184 0.2217
vn 0.9951 -0.0882 0.0437
vn -0.9566 -0.2597 0.1324
vn 0.9566 -0.2597 0.1324
vn -0.9951 -0.0882 0.0437
vn 0.8808 -0.4184 0.2217
vn -0.9952 0.0885 -0.0430
vn 0.7705 -0.5560 0.3116
vn -0.9567 0.2626 -0.1257
vn 0.6298 -0.6641 0.4028
vn -0.8813 0.4271 -0.2022
vn 0.4641 -0.7341 0.4957
vn 0.0977 0.9030 -0.4185
vn -0.7720 0.5753 -0.2702
vn 0.2816 -0.7618 0.5834
vn 0.2895 0.8683 -0.4029
vn -0.6332 0.7013 -0.3275
vn 0.0936 -0.7609 0.6421
vn 0.4703 0.8002 -0.3722
vn -0.4703 0.8002 -0.3722
vn -0.0936 -0.7609 0.6421
vn 0.6332 0.7013 -0.3275
vn -0.2895 0.8683 -0.4029
vn -0.2816 -0.7618 0.5834
vn 0.7720 0.5753 -0.2702
vn -0.0977 0.9030 -0.4185
vn -0.4641 -0.7341 0.4957
vn 0.8813 0.4271 -0.2022
vn -0.6298 -0.6641 0.4028
vn 0.9567 0.2626 -0.1257
vn -0.7705 -0.5560 0.3116
vn 0.4661 -0.8415 0.2733
vn -0.9952 0.0936 -0.0298
vn 0.7716 -0.5973 0.2188
vn -0.9568 0.2775 -0.0872
vn 0.6318 -0.7209 0.2848
vn -0.8815 0.4509 -0.1402
vn 0.4674 -0.8102 0.3538
vn 0.0978 0.9521 -0.2898
vn -0.7724 0.6069 -0.1872
vn 0.2856 -0.8606 0.4216
vn 0.2898 0.9155 -0.2790
vn -0.6336 0.7396 -0.2268
vn 0.0956 -0.8779 0.4691
vn 0.4707 0.8438 -0.2578
vn -0.4707 0.8438 -0.2578
vn -0.0956 -0.8779 0.4691
vn 0.6336 0.7396 -0.2268
vn -0.2898 0.9155 -0.2790
vn -0.2856 -0.8606 0.4216
vn 0.7724 0.6069 -0.1872
vn -0.0978 0.9521 -0.2898
vn -0.4674 -0.8102 0.3538
vn 0.8815 0.4509 -0.1402
vn -0.6318 -0.7209 0.2848
vn 0.9568 0.2775 -0.0872
vn -0.7716 -0.5973 0.2188
vn 0.9952 0.0936 -0.0298
vn -0.8813 -0.4465 0.1550
vn 0.9952 -0.0934 0.0304
vn -0.9567 -0.2760 0.0922
vn 0.9567 -0.2760 0.0922
vn -0.9952 -0.0934 0.0304
vn -0.9952 0.0978 -0.0088
vn 0.0978 0.9790 -0.1789
vn -0.7723 0.6244 -0.1172
vn 0.2845 -0.8988 0.3337
vn 0.2897 0.9415 -0.1724
vn -0.6335 0.7607 -0.1412
vn 0.0953 -0.9222 0.3749
vn 0.4706 0.8678 -0.1598
vn -0.4706 0.8678 -0.1598
vn -0.0953 -0.9222 0.3749
vn 0.6335 0.7607 -0.1412
vn -0.2897 0.9415 -0.1724
vn -0.2845 -0.8988 0.3337
vn 0.7723 0.6244 -0.1172
vn -0.0978 0.9790 -0.1789
vn -0.4661 -0.8415 0.2732
vn 0.8814 0.4639 -0.0885
vn -0.6308 -0.7463 0.2123
vn 0.9567 0.2856 -0.0557
vn -0.7710 -0.6171 0.1571
vn 0.9952 0.0964 -0.0193
vn -0.8810 -0.4607 0.1076
vn 0.9952 -0.0963 0.0200
vn -0.9566 -0.2846 0.0622
vn 0.9566 -0.2846 0.0622
vn -0.9952 -0.0963 0.0200
vn 0.8810 -0.4607 0.1076
vn -0.9952 0.0964 -0.0193
vn 0.7710 -0.6171 0.1571
vn -0.9567 0.2856 -0.0557
vn 0.6308 -0.7463 0.2123
vn -0.8814 0.4639 -0.0885
vn 0.0955 0.9954 0.0104
vn 0.7710 -0.6298 0.0940
vn -0.9568 0.2897 -0.0243
vn 0.6304 -0.7633 0.1415
vn -0.8816 0.4705 -0.0375
vn 0.4645 -0.8614 0.2053
vn 0.0979 0.9927 -0.0711
vn -0.7725 0.6331 -0.0486
vn 0.2816 -0.9174 0.2813
vn 0.2899 0.9546 -0.0688
vn -0.6338 0.7713 -0.0575
vn 0.0935 -0.9355 0.3409
vn 0.4709 0.8799 -0.0642
vn -0.4709 0.8799 -0.0642
vn -0.0935 -0.9355 0.3409
vn 0.6338 0.7713 -0.0575
vn -0.2899 0.9546 -0.0688
vn -0.2816 -0.9174 0.2813
vn 0.7725 0.6331 -0.0486
vn -0.0979 0.9927 -0.0711
vn -0.4645 -0.8614 0.2053
vn 0.8816 0.4705 -0.0375
vn -0.6304 -0.7633 0.1415
vn 0.9568 0.2897 -0.0243
vn -0.7710 -0.6298 0.0940
vn 0.9952 0.0978 -0.0088
vn -0.8811 -0.4693 0.0587
vn 0.9952 -0.0978 0.0095
vn -0.9567 -0.2894 0.0315
vn 0.9567 -0.2894 0.0315
vn -0.9952 -0.0978 0.0095
vn 0.8811 -0.4693 0.0587
vn 0.8812 -0.4711 0.0385
vn -0.7559 0.6546 0.0038
vn 0.2903 -0.9569 -0.0006
vn 0.2819 0.9594 0.0097
vn -0.6155 0.7881 0.0062
vn 0.0980 -0.9952 -0.0006
vn 0.4565 0.8897 0.0083
vn -0.4565 0.8897 0.0083
vn -0.0980 -0.9952 -0.0006
vn 0.6155 0.7881 0.0062
vn -0.2820 0.9594 0.0097
vn -0.2903 -0.9569 -0.0006
vn 0.7559 0.6546 0.0038
vn -0.0955 0.9954 0.0104
vn -0.4714 -0.8819 -0.0005
vn 0.8721 0.4893 0.0017
vn -0.6344 -0.7730 -0.0005
vn 0.9545 0.2981 0.0005
vn -0.7730 -0.6344 -0.0004
vn 0.9952 0.0983 0.0001
vn -0.8819 -0.4714 -0.0003
vn 0.9952 -0.0980 -0.0001
vn -0.9569 -0.2903 -0.0002
vn 0.9569 -0.2903 -0.0002
vn -0.9952 -0.0980 -0.0001
vn 0.8819 -0.4714 -0.0003
vn -0.9952 0.0983 0.0001
vn 0.7730 -0.6344 -0.0004
vn -0.9545 0.2981 0.0005
vn 0.6344 -0.7730 -0.0005
vn -0.8721 0.4893 0.0017
vn 0.4714 -0.8819 -0.0005
vn 0.9951 0.0972 -0.0192
vn -0.9951 0.0987 -0.0079
vn 0.7719 -0.6336 0.0518
vn -0.9514 0.3069 -0.0242
vn 0.6331 -0.7715 0.0631
vn -0.8603 0.5080 -0.0436
vn 0.4701 -0.8797 0.0720
vn 0.0924 0.9950 -0.0382
vn -0.7362 0.6735 -0.0666
vn 0.2894 -0.9540 0.0781
vn 0.2733 0.9558 -0.1086
vn -0.5946 0.7990 -0.0896
vn 0.0977 -0.9919 0.0812
vn 0.4409 0.8912 -0.1067
vn -0.4409 0.8912 -0.1067
vn -0.0977 -0.9919 0.0812
vn 0.5946 0.7990 -0.0896
vn -0.2733 0.9558 -0.1088
vn -0.2894 -0.9540 0.0781
vn 0.7362 0.6735 -0.0666
vn -0.0924 0.9950 -0.0382
vn -0.4701 -0.8797 0.0720
vn 0.8603 0.5080 -0.0436
vn -0.6331 -0.7715 0.0631
vn 0.9514 0.3069 -0.0242
vn -0.7719 -0.6336 0.0518
vn 0.9951 0.0987 -0.0079
vn -0.8812 -0.4711 0.0385
vn 0.9952 -0.0980 0.0080
vn -0.9567 -0.2902 0.0237
vn 0.9567 -0.2902 0.0237
vn -0.9952 -0.0980 0.0080
vn 0.8818 -0.4548 0.1248
vn -0.8818 -0.4624 0.0924
vn 0.9952 -0.0962 0.0192
vn -0.9569 -0.2848 0.0569
vn 0.9569 -0.2848 0.0569
vn -0.9952 -0.0962 0.0192
vn 0.8818 -0.4624 0.0924
vn -0.9951 0.0972 -0.0192
vn 0.7729 -0.6223 0.1243
vn -0.9515 0.3021 -0.0579
vn 0.6342 -0.7582 0.1514
vn -0.8615 0.4981 -0.0984
vn 0.4712 -0.8650 0.1726
vn 0.0935 0.9549 -0.2819
vn -0.7383 0.6597 -0.1403
vn 0.2902 -0.9385 0.1873
vn 0.2748 0.9288 -0.2486
vn -0.5974 0.7819 -0.1782
vn 0.0980 -0.9760 0.1947
vn 0.4431 0.8698 -0.2171
vn -0.4431 0.8698 -0.2172
vn -0.0980 -0.9760 0.1947
vn 0.5974 0.7819 -0.1782
vn -0.2748 0.9288 -0.2485
vn -0.2902 -0.9385 0.1873
vn 0.7383 0.6597 -0.1403
vn -0.0935 0.9549 -0.2820
vn -0.4712 -0.8650 0.1726
vn 0.8615 0.4981 -0.0984
vn -0.6342 -0.7582 0.1514
vn 0.9515 0.3021 -0.0579
vn -0.7729 -0.6223 0.1243
vn 0.4711 -0.8363 0.2803
vn -0.9951 0.0957 -0.0265
vn 0.7729 -0.6122 0.1671
vn -0.9513 0.2972 -0.0817
vn 0.6342 -0.7461 0.2028
vn -0.8619 0.4877 -0.1390
vn 0.4712 -0.8513 0.2308
vn 0.0856 0.7300 -0.6780
vn -0.7392 0.6430 -0.2003
vn 0.2902 -0.9237 0.2501
vn 0.2698 0.8265 -0.4942
vn -0.5987 0.7529 -0.2735
vn 0.0980 -0.9607 0.2599
vn 0.4424 0.8205 -0.3621
vn -0.4424 0.8205 -0.3620
vn -0.0980 -0.9607 0.2599
vn 0.5987 0.7529 -0.2734
vn -0.2697 0.8263 -0.4944
vn -0.2902 -0.9237 0.2501
vn 0.7392 0.6430 -0.2003
vn -0.0856 0.7303 -0.6778
vn -0.4712 -0.8513 0.2308
vn 0.8619 0.4877 -0.1390
vn -0.6342 -0.7461 0.2028
vn 0.9513 0.2972 -0.0817
vn -0.7729 -0.6122 0.1671
vn 0.9951 0.0957 -0.0265
vn -0.8818 -0.4548 0.1248
vn 0.9952 -0.0945 0.0264
vn -0.9569 -0.2799 0.0774
vn 0.9569 -0.2799 0.0774
vn -0.9952 -0.0945 0.0264
vn -0.0979 -0.9137 0.3944
vn 0.0863 0.6925 -0.7163
vn -0.7411 0.6326 -0.2250
vn 0.2901 -0.9074 0.3040
vn 0.2742 0.8362 -0.4750
vn -0.6005 0.7452 -0.2901
vn 0.0979 -0.9437 0.3160
vn 0.4452 0.8205 -0.3585
vn -0.4452 0.8205 -0.3585
vn -0.0979 -0.9437 0.3160
vn 0.6005 0.7452 -0.2901
vn -0.2742 0.8362 -0.4749
vn -0.2901 -0.9074 0.3040
vn 0.7411 0.6326 -0.2249
vn -0.0863 0.6920 -0.7168
vn -0.4711 -0.8363 0.2803
vn 0.8622 0.4806 -0.1600
vn -0.6341 -0.7331 0.2460
vn 0.9513 0.2932 -0.0957
vn -0.7728 -0.6016 0.2022
vn 0.9950 0.0947 -0.0316
vn -0.8818 -0.4470 0.1505
vn 0.9952 -0.0929 0.0315
vn -0.9569 -0.2752 0.0930
vn 0.9569 -0.2752 0.0930
vn -0.9952 -0.0929 0.0315
vn 0.8818 -0.4470 0.1505
vn -0.9950 0.0947 -0.0316
vn 0.7728 -0.6016 0.2022
vn -0.9513 0.2932 -0.0957
vn 0.6341 -0.7331 0.2460
vn -0.8622 0.4806 -0.1600
vn -0.6341 -0.6794 0.3692
vn 0.6026 0.7238 -0.3361
vn -0.2767 0.8260 -0.4911
vn -0.2900 -0.8787 0.3793
vn 0.7432 0.6124 -0.2694
vn -0.0916 0.7501 -0.6549
vn -0.4710 -0.8099 0.3497
vn 0.8633 0.4656 -0.1950
vn -0.6339 -0.7100 0.3067
vn 0.9511 0.2856 -0.1176
vn -0.7726 -0.5827 0.2519
vn 0.9949 0.0925 -0.0393
vn -0.8817 -0.4330 0.1874
vn 0.9952 -0.0900 0.0391
vn -0.9568 -0.2666 0.1156
vn 0.9568 -0.2666 0.1156
vn -0.9952 -0.0900 0.0391
vn 0.8817 -0.4330 0.1874
vn -0.9949 0.0925 -0.0393
vn 0.7726 -0.5827 0.2519
vn -0.9511 0.2856 -0.1175
vn 0.6339 -0.7100 0.3067
vn -0.8633 0.4656 -0.1950
vn 0.4710 -0.8099 0.3497
vn 0.0917 0.7502 -0.6548
vn -0.7432 0.6124 -0.2694
vn 0.2900 -0.8787 0.3793
vn 0.2767 0.8260 -0.4911
vn -0.6026 0.7238 -0.3361
vn 0.0979 -0.9137 0.3944
vn 0.4475 0.7976 -0.4044
vn -0.4475 0.7976 -0.4045
vn -0.9546 -0.2240 0.1962
vn 0.9512 0.2740 -0.1418
vn -0.7727 -0.5576 0.3032
vn 0.9948 0.0897 -0.0473
vn -0.8818 -0.4143 0.2255
vn 0.9952 -0.0864 0.0468
vn -0.9569 -0.2551 0.1391
vn 0.9569 -0.2551 0.1391
vn -0.9952 -0.0864 0.0468
vn 0.8818 -0.4143 0.2255
vn -0.9948 0.0897 -0.0473
vn 0.7727 -0.5576 0.3032
vn -0.9512 0.2740 -0.1418
vn 0.6341 -0.6794 0.3692
vn -0.8648 0.4440 -0.2343
vn 0.4711 -0.7751 0.4210
vn 0.0924 0.7017 -0.7065
vn -0.7457 0.5848 -0.3192
vn 0.2901 -0.8411 0.4566
vn 0.2780 0.7733 -0.5699
vn -0.6062 0.6883 -0.3984
vn 0.0979 -0.8746 0.4748
vn 0.4503 0.7537 -0.4787
vn -0.4503 0.7538 -0.4786
vn -0.0979 -0.8746 0.4748
vn 0.6062 0.6883 -0.3984
vn -0.2780 0.7734 -0.5697
vn -0.2901 -0.8411 0.4566
vn 0.7457 0.5848 -0.3193
vn -0.0924 0.7017 -0.7065
vn -0.4711 -0.7751 0.4210
vn 0.8648 0.4440 -0.2344
vn -0.9512 0.1057 -0.2899
vn 0.9546 -0.2240 0.1962
vn -0.9948 -0.0770 0.0660
vn 0.8775 -0.3592 0.3179
vn -0.9946 0.0795 -0.0667
vn 0.7673 -0.4797 0.4256
vn -0.9506 0.2378 -0.1996
vn 0.6275 -0.5824 0.5167
vn -0.8654 0.3808 -0.3258
vn 0.4648 -0.6624 0.5876
vn 0.0939 0.6617 -0.7438
vn -0.7477 0.4974 -0.4398
vn 0.2855 -0.7170 0.6359
vn 0.2776 0.6737 -0.6849
vn -0.6081 0.5845 -0.5372
vn 0.0963 -0.7447 0.6605
vn 0.4504 0.6445 -0.6179
vn -0.4504 0.6445 -0.6179
vn -0.0963 -0.7447 0.6605
vn 0.6081 0.5845 -0.5372
vn -0.2776 0.6737 -0.6849
vn -0.2855 -0.7170 0.6359
vn 0.7477 0.4974 -0.4398
vn -0.0939 0.6617 -0.7439
vn -0.4648 -0.6624 0.5876
vn 0.8654 0.3808 -0.3258
vn -0.6275 -0.5824 0.5167
vn 0.9506 0.2378 -0.1996
vn -0.7673 -0.4797 0.4256
vn 0.9946 0.0795 -0.0667
vn -0.8775 -0.3592 0.3179
vn 0.9948 -0.0770 0.0660
vn -0.6344 0.0045 -0.7730
vn 0.6137 -0.2760 0.7397
vn -0.8690 0.1670 -0.4658
vn 0.4517 -0.3106 0.8364
vn 0.0928 0.3870 -0.9174
vn -0.7538 0.2185 -0.6197
vn 0.2762 -0.3337 0.9013
vn 0.2768 0.3302 -0.9024
vn -0.6130 0.2599 -0.7461
vn 0.0929 -0.3453 0.9339
vn 0.4521 0.2945 -0.8419
vn -0.4522 0.2945 -0.8419
vn -0.0929 -0.3453 0.9339
vn 0.6130 0.2599 -0.7461
vn -0.2769 0.3302 -0.9024
vn -0.2762 -0.3337 0.9013
vn 0.7538 0.2185 -0.6197
vn -0.0928 0.3869 -0.9174
vn -0.4517 -0.3106 0.8364
vn 0.8690 0.1670 -0.4658
vn -0.6137 -0.2760 0.7397
vn 0.9512 0.1057 -0.2899
vn -0.7556 -0.2304 0.6132
vn 0.9945 0.0365 -0.0984
vn -0.8694 -0.1747 0.4622
vn 0.9945 -0.0369 0.0983
vn -0.9512 -0.1091 0.2887
vn 0.9512 -0.1091 0.2887
vn -0.9945 -0.0369 0.0983
vn 0.8694 -0.1747 0.4622
vn -0.9945 0.0365 -0.0984
vn 0.7556 -0.2304 0.6132
vn 0.0980 -0.0058 0.9952
vn 0.4714 0.0052 -0.8819
vn -0.4714 0.0052 -0.8819
vn -0.0980 -0.0058 0.9952
vn 0.6344 0.0045 -0.7730
vn -0.2903 0.0056 -0.9569
vn -0.2903 -0.0056 0.9569
vn 0.7730 0.0037 -0.6344
vn -0.0980 0.0059 -0.9952
vn -0.4714 -0.0052 0.8819
vn 0.8819 0.0028 -0.4714
vn -0.6344 -0.0045 0.7730
vn 0.9569 0.0017 -0.2903
vn -0.7730 -0.0037 0.6344
vn 0.9952 0.0006 -0.0980
vn -0.8819 -0.0028 0.4714
vn 0.9952 -0.0006 0.0980
vn -0.9569 -0.0017 0.2903
vn 0.9569 -0.0017 0.2903
vn -0.9952 -0.0006 0.0980
vn 0.8819 -0.0028 0.4714
vn -0.9952 0.0006 -0.0980
vn 0.7730 -0.0037 0.6344
vn -0.9569 0.0017 -0.2903
vn 0.6344 -0.0045 0.7730
vn -0.8819 0.0028 -0.4714
vn 0.4714 -0.0052 0.8819
vn 0.0980 0.0059 -0.9952
vn -0.7730 0.0037 -0.6344
vn 0.2903 -0.0056 0.9569
vn 0.2903 0.0056 -0.9569
vn 0.0000 1.0000 0.0081
usemtl None
s off
f 1/1/1 2/2/1 4/3/1 3/4/1
f 3/4/2 4/3/2 6/5/2 5/6/2
f 5/6/3 6/5/3 8/7/3 7/8/3
f 7/8/4 8/7/4 10/9/4 9/10/4
f 9/10/5 10/9/5 12/11/5 11/12/5
f 11/12/6 12/11/6 14/13/6 13/14/6
f 13/14/7 14/13/7 16/15/7 15/16/7
f 15/16/8 16/15/8 18/17/8 17/18/8
f 17/18/9 18/17/9 20/19/9 19/20/9
f 19/20/10 20/19/10 22/21/10 21/22/10
f 21/22/11 22/21/11 24/23/11 23/24/11
f 23/24/12 24/23/12 26/25/12 25/26/12
f 25/26/13 26/25/13 28/27/13 27/28/13
f 27/28/14 28/27/14 30/29/14 29/30/14
f 29/30/15 30/29/15 32/31/15 31/32/15
f 31/32/16 32/31/16 34/33/16 33/34/16
f 33/34/17 34/33/17 36/35/17 35/36/17
f 35/36/18 36/35/18 38/37/18 37/38/18
f 37/38/19 38/37/19 40/39/19 39/40/19
f 39/40/20 40/39/20 42/41/20 41/42/20
f 41/42/21 42/41/21 44/43/21 43/44/21
f 43/44/22 44/43/22 46/45/22 45/46/22
f 45/46/23 46/45/23 48/47/23 47/48/23
f 47/48/24 48/47/24 50/49/24 49/50/24
f 49/50/25 50/49/25 52/51/25 51/52/25
f 51/52/26 52/51/26 54/53/26 53/54/26
f 53/54/27 54/53/27 56/55/27 55/56/27
f 55/56/28 56/55/28 58/57/28 57/58/28
f 57/58/29 58/57/29 60/59/29 59/60/29
f 59/60/30 60/59/30 62/61/30 61/62/30
f 22/21/31 20/19/31 74/63/31 75/64/31
f 61/62/32 62/61/32 64/65/32 63/66/32
f 63/66/33 64/65/33 2/67/33 1/68/33
f 1/69/34 3/70/34 5/71/34 7/72/34 9/73/34 11/74/34 13/75/34 15/76/34 17/77/34 19/78/34 21/79/34 23/80/34 25/81/34 27/82/34 29/83/34 31/84/34 33/85/34 35/86/34 37/87/34 39/88/34 41/89/34 43/90/34 45/91/34 47/92/34 49/93/34 51/94/34 53/95/34 55/96/34 57/97/34 59/98/34 61/99/34 63/100/34
f 92/101/35 91/102/35 123/103/35 124/104/35
f 40/39/36 38/37/36 83/105/36 84/106/36
f 58/57/37 56/55/37 92/101/37 93/107/37
f 14/13/38 12/11/38 70/108/38 71/109/38
f 32/31/39 30/29/39 79/110/39 80/111/39
f 50/49/40 48/47/40 88/112/40 89/113/40
f 6/5/41 4/3/41 65/114/41 67/115/41
f 24/23/42 22/21/42 75/64/42 76/116/42
f 42/41/43 40/39/43 84/106/43 85/117/43
f 60/59/44 58/57/44 93/107/44 94/118/44
f 16/15/45 14/13/45 71/109/45 72/119/45
f 34/33/46 32/31/46 80/111/46 81/120/46
f 52/51/47 50/49/47 89/113/47 90/121/47
f 8/7/48 6/5/48 67/115/48 68/122/48
f 26/25/49 24/23/49 76/116/49 77/123/49
f 44/43/50 42/41/50 85/117/50 86/124/50
f 62/61/51 60/59/51 94/118/51 95/125/51
f 18/17/52 16/15/52 72/119/52 73/126/52
f 36/35/53 34/33/53 81/120/53 82/127/53
f 54/53/54 52/51/54 90/121/54 91/102/54
f 10/9/55 8/7/55 68/122/55 69/128/55
f 28/27/56 26/25/56 77/123/56 78/129/56
f 46/45/57 44/43/57 86/124/57 87/130/57
f 64/65/58 62/61/58 95/125/58 96/131/58
f 20/19/59 18/17/59 73/126/59 74/63/59
f 38/37/60 36/35/60 82/127/60 83/105/60
f 56/55/61 54/53/61 91/102/61 92/101/61
f 12/11/62 10/9/62 69/128/62 70/108/62
f 30/29/63 28/27/63 78/129/63 79/110/63
f 48/47/64 46/45/64 87/130/64 88/112/64
f 4/3/65 2/2/65 66/132/65 65/114/65
f 2/67/66 64/65/66 96/131/66 66/133/66
f 127/134/67 126/135/67 158/136/67 159/137/67
f 79/110/68 78/129/68 110/138/68 111/139/68
f 65/114/69 66/132/69 98/140/69 97/141/69
f 93/107/70 92/101/70 124/104/70 125/142/70
f 80/111/71 79/110/71 111/139/71 112/143/71
f 67/115/72 65/114/72 97/141/72 99/144/72
f 94/118/73 93/107/73 125/142/73 126/135/73
f 81/120/74 80/111/74 112/143/74 113/145/74
f 68/122/75 67/115/75 99/144/75 100/146/75
f 95/125/76 94/118/76 126/135/76 127/134/76
f 82/127/77 81/120/77 113/145/77 114/147/77
f 69/128/78 68/122/78 100/146/78 101/148/78
f 96/131/79 95/125/79 127/134/79 128/149/79
f 83/105/80 82/127/80 114/147/80 115/150/80
f 70/108/81 69/128/81 101/148/81 102/151/81
f 66/133/82 96/131/82 128/149/82 98/152/82
f 84/106/83 83/105/83 115/150/83 116/153/83
f 71/109/84 70/108/84 102/151/84 103/154/84
f 85/117/85 84/106/85 116/153/85 117/155/85
f 72/119/86 71/109/86 103/154/86 104/156/86
f 86/124/87 85/117/87 117/155/87 118/157/87
f 73/126/88 72/119/88 104/156/88 105/158/88
f 87/130/89 86/124/89 118/157/89 119/159/89
f 74/63/90 73/126/90 105/158/90 106/160/90
f 88/112/91 87/130/91 119/159/91 120/161/91
f 75/64/92 74/63/92 106/160/92 107/162/92
f 89/113/93 88/112/93 120/161/93 121/163/93
f 76/116/94 75/64/94 107/162/94 108/164/94
f 90/121/95 89/113/95 121/163/95 122/165/95
f 77/123/96 76/116/96 108/164/96 109/166/96
f 91/102/97 90/121/97 122/165/97 123/103/97
f 78/129/98 77/123/98 109/166/98 110/138/98
f 149/167/99 148/168/99 180/169/99 181/170/99
f 114/147/100 113/145/100 145/171/100 146/172/100
f 101/148/101 100/146/101 132/173/101 133/174/101
f 128/149/102 127/134/102 159/137/102 160/175/102
f 115/150/103 114/147/103 146/172/103 147/176/103
f 102/151/104 101/148/104 133/174/104 134/177/104
f 98/152/105 128/149/105 160/175/105 130/178/105
f 116/153/106 115/150/106 147/176/106 148/168/106
f 103/154/107 102/151/107 134/177/107 135/179/107
f 117/155/108 116/153/108 148/168/108 149/167/108
f 104/156/109 103/154/109 135/179/109 136/180/109
f 118/157/110 117/155/110 149/167/110 150/181/110
f 105/158/111 104/156/111 136/180/111 137/182/111
f 119/159/112 118/157/112 150/181/112 151/183/112
f 106/160/113 105/158/113 137/182/113 138/184/113
f 120/161/114 119/159/114 151/183/114 152/185/114
f 107/162/115 106/160/115 138/184/115 139/186/115
f 121/163/116 120/161/116 152/185/116 153/187/116
f 108/164/117 107/162/117 139/186/117 140/188/117
f 122/165/118 121/163/118 153/187/118 154/189/118
f 109/166/119 108/164/119 140/188/119 141/190/119
f 123/103/120 122/165/120 154/189/120 155/191/120
f 110/138/121 109/166/121 141/190/121 142/192/121
f 124/104/122 123/103/122 155/191/122 156/193/122
f 111/139/123 110/138/123 142/192/123 143/194/123
f 97/141/124 98/140/124 130/195/124 129/196/124
f 125/142/125 124/104/125 156/193/125 157/197/125
f 112/143/126 111/139/126 143/194/126 144/198/126
f 99/144/127 97/141/127 129/196/127 131/199/127
f 126/135/128 125/142/128 157/197/128 158/136/128
f 113/145/129 112/143/129 144/198/129 145/171/129
f 100/146/130 99/144/130 131/199/130 132/173/130
f 184/200/131 183/201/131 215/202/131 216/203/131
f 136/180/132 135/179/132 167/204/132 168/205/132
f 150/181/133 149/167/133 181/170/133 182/206/133
f 137/182/134 136/180/134 168/205/134 169/207/134
f 151/183/135 150/181/135 182/206/135 183/201/135
f 138/184/136 137/182/136 169/207/136 170/208/136
f 152/185/137 151/183/137 183/201/137 184/200/137
f 139/186/138 138/184/138 170/208/138 171/209/138
f 153/187/139 152/185/139 184/200/139 185/210/139
f 140/188/140 139/186/140 171/209/140 172/211/140
f 154/189/141 153/187/141 185/210/141 186/212/141
f 141/190/142 140/188/142 172/211/142 173/213/142
f 155/191/143 154/189/143 186/212/143 187/214/143
f 142/192/144 141/190/144 173/213/144 174/215/144
f 156/193/145 155/191/145 187/214/145 188/216/145
f 143/194/146 142/192/146 174/215/146 175/217/146
f 129/196/147 130/195/147 162/218/147 161/219/147
f 157/197/148 156/193/148 188/216/148 189/220/148
f 144/198/149 143/194/149 175/217/149 176/221/149
f 131/199/150 129/196/150 161/219/150 163/222/150
f 158/136/151 157/197/151 189/220/151 190/223/151
f 145/171/152 144/198/152 176/221/152 177/224/152
f 132/173/153 131/199/153 163/222/153 164/225/153
f 159/137/154 158/136/154 190/223/154 191/226/154
f 146/172/155 145/171/155 177/224/155 178/227/155
f 133/174/156 132/173/156 164/225/156 165/228/156
f 160/175/157 159/137/157 191/226/157 192/229/157
f 147/176/158 146/172/158 178/227/158 179/230/158
f 134/177/159 133/174/159 165/228/159 166/231/159
f 130/178/160 160/175/160 192/229/160 162/232/160
f 148/168/161 147/176/161 179/230/161 180/169/161
f 135/179/162 134/177/162 166/231/162 167/204/162
f 219/233/163 218/234/163 250/235/163 251/236/163
f 171/209/164 170/208/164 202/237/164 203/238/164
f 185/210/165 184/200/165 216/203/165 217/239/165
f 172/211/166 171/209/166 203/238/166 204/240/166
f 186/212/167 185/210/167 217/239/167 218/234/167
f 173/213/168 172/211/168 204/240/168 205/241/168
f 187/214/169 186/212/169 218/234/169 219/233/169
f 174/215/170 173/213/170 205/241/170 206/242/170
f 188/216/171 187/214/171 219/233/171 220/243/171
f 175/217/172 174/215/172 206/242/172 207/244/172
f 161/219/173 162/218/173 194/245/173 193/246/173
f 189/220/174 188/216/174 220/243/174 221/247/174
f 176/221/175 175/217/175 207/244/175 208/248/175
f 163/222/176 161/219/176 193/246/176 195/249/176
f 190/223/177 189/220/177 221/247/177 222/250/177
f 177/224/178 176/221/178 208/248/178 209/251/178
f 164/225/179 163/222/179 195/249/179 196/252/179
f 191/226/180 190/223/180 222/250/180 223/253/180
f 178/227/181 177/224/181 209/251/181 210/254/181
f 165/228/182 164/225/182 196/252/182 197/255/182
f 192/229/183 191/226/183 223/253/183 224/256/183
f 179/230/184 178/227/184 210/254/184 211/257/184
f 166/231/185 165/228/185 197/255/185 198/258/185
f 162/232/186 192/229/186 224/256/186 194/259/186
f 180/169/187 179/230/187 211/257/187 212/260/187
f 167/204/188 166/231/188 198/258/188 199/261/188
f 181/170/189 180/169/189 212/260/189 213/262/189
f 168/205/190 167/204/190 199/261/190 200/263/190
f 182/206/191 181/170/191 213/262/191 214/264/191
f 169/207/192 168/205/192 200/263/192 201/265/192
f 183/201/193 182/206/193 214/264/193 215/202/193
f 170/208/194 169/207/194 201/265/194 202/237/194
f 227/266/195 225/267/195 257/268/195 259/269/195
f 206/242/196 205/241/196 237/270/196 238/271/196
f 220/243/197 219/233/197 251/236/197 252/272/197
f 207/244/198 206/242/198 238/271/198 239/273/198
f 193/246/199 194/245/199 226/274/199 225/267/199
f 221/247/200 220/243/200 252/272/200 253/275/200
f 208/248/201 207/244/201 239/273/201 240/276/201
f 195/249/202 193/246/202 225/267/202 227/266/202
f 222/250/203 221/247/203 253/275/203 254/277/203
f 209/251/204 208/248/204 240/276/204 241/278/204
f 196/252/205 195/249/205 227/266/205 228/279/205
f 223/253/206 222/250/206 254/277/206 255/280/206
f 210/254/207 209/251/207 241/278/207 242/281/207
f 197/255/208 196/252/208 228/279/208 229/282/208
f 224/256/209 223/253/209 255/280/209 256/283/209
f 211/257/210 210/254/210 242/281/210 243/284/210
f 198/258/211 197/255/211 229/282/211 230/285/211
f 194/259/212 224/256/212 256/283/212 226/286/212
f 212/260/213 211/257/213 243/284/213 244/287/213
f 199/261/214 198/258/214 230/285/214 231/288/214
f 213/262/215 212/260/215 244/287/215 245/289/215
f 200/263/216 199/261/216 231/288/216 232/290/216
f 214/264/217 213/262/217 245/289/217 246/291/217
f 201/265/218 200/263/218 232/290/218 233/292/218
f 215/202/219 214/264/219 246/291/219 247/293/219
f 202/237/220 201/265/220 233/292/220 234/294/220
f 216/203/221 215/202/221 247/293/221 248/295/221
f 203/238/222 202/237/222 234/294/222 235/296/222
f 217/239/223 216/203/223 248/295/223 249/297/223
f 204/240/224 203/238/224 235/296/224 236/298/224
f 218/234/225 217/239/225 249/297/225 250/235/225
f 205/241/226 204/240/226 236/298/226 237/270/226
f 262/299/227 261/300/227 293/301/227 294/302/227
f 254/277/228 253/275/228 285/303/228 286/304/228
f 241/278/229 240/276/229 272/305/229 273/306/229
f 228/279/230 227/266/230 259/269/230 260/307/230
f 255/280/231 254/277/231 286/304/231 287/308/231
f 242/281/232 241/278/232 273/306/232 274/309/232
f 229/282/233 228/279/233 260/307/233 261/300/233
f 256/283/234 255/280/234 287/308/234 288/310/234
f 243/284/235 242/281/235 274/309/235 275/311/235
f 230/285/236 229/282/236 261/300/236 262/299/236
f 226/286/237 256/283/237 288/310/237 258/312/237
f 244/287/238 243/284/238 275/311/238 276/313/238
f 231/288/239 230/285/239 262/299/239 263/314/239
f 245/289/240 244/287/240 276/313/240 277/315/240
f 232/290/241 231/288/241 263/314/241 264/316/241
f 246/291/242 245/289/242 277/315/242 278/317/242
f 233/292/243 232/290/243 264/316/243 265/318/243
f 247/293/244 246/291/244 278/317/244 279/319/244
f 234/294/245 233/292/245 265/318/245 266/320/245
f 248/295/246 247/293/246 279/319/246 280/321/246
f 235/296/247 234/294/247 266/320/247 267/322/247
f 249/297/248 248/295/248 280/321/248 281/323/248
f 236/298/249 235/296/249 267/322/249 268/324/249
f 250/235/250 249/297/250 281/323/250 282/325/250
f 237/270/251 236/298/251 268/324/251 269/326/251
f 251/236/252 250/235/252 282/325/252 283/327/252
f 238/271/253 237/270/253 269/326/253 270/328/253
f 252/272/254 251/236/254 283/327/254 284/329/254
f 239/273/255 238/271/255 270/328/255 271/330/255
f 225/267/256 226/274/256 258/331/256 257/268/256
f 253/275/257 252/272/257 284/329/257 285/303/257
f 240/276/258 239/273/258 271/330/258 272/305/258
f 297/332/259 296/333/259 328/334/259 329/335/259
f 258/312/260 288/310/260 320/336/260 290/337/260
f 276/313/261 275/311/261 307/338/261 308/339/261
f 263/314/262 262/299/262 294/302/262 295/340/262
f 277/315/263 276/313/263 308/339/263 309/341/263
f 264/316/264 263/314/264 295/340/264 296/333/264
f 278/317/265 277/315/265 309/341/265 310/342/265
f 265/318/266 264/316/266 296/333/266 297/332/266
f 279/319/267 278/317/267 310/342/267 311/343/267
f 266/320/268 265/318/268 297/332/268 298/344/268
f 280/321/269 279/319/269 311/343/269 312/345/269
f 267/322/270 266/320/270 298/344/270 299/346/270
f 281/323/271 280/321/271 312/345/271 313/347/271
f 268/324/272 267/322/272 299/346/272 300/348/272
f 282/325/273 281/323/273 313/347/273 314/349/273
f 269/326/274 268/324/274 300/348/274 301/350/274
f 283/327/275 282/325/275 314/349/275 315/351/275
f 270/328/276 269/326/276 301/350/276 302/352/276
f 284/329/277 283/327/277 315/351/277 316/353/277
f 271/330/278 270/328/278 302/352/278 303/354/278
f 257/268/279 258/331/279 290/355/279 289/356/279
f 285/303/280 284/329/280 316/353/280 317/357/280
f 272/305/281 271/330/281 303/354/281 304/358/281
f 259/269/282 257/268/282 289/356/282 291/359/282
f 286/304/283 285/303/283 317/357/283 318/360/283
f 273/306/284 272/305/284 304/358/284 305/361/284
f 260/307/285 259/269/285 291/359/285 292/362/285
f 287/308/286 286/304/286 318/360/286 319/363/286
f 274/309/287 273/306/287 305/361/287 306/364/287
f 261/300/288 260/307/288 292/362/288 293/301/288
f 288/310/289 287/308/289 319/363/289 320/336/289
f 275/311/290 274/309/290 306/364/290 307/338/290
f 332/365/291 331/366/291 363/367/291 364/368/291
f 311/343/292 310/342/292 342/369/292 343/370/292
f 298/344/293 297/332/293 329/335/293 330/371/293
f 312/345/294 311/343/294 343/370/294 344/372/294
f 299/346/295 298/344/295 330/371/295 331/366/295
f 313/347/296 312/345/296 344/372/296 345/373/296
f 300/348/297 299/346/297 331/366/297 332/365/297
f 314/349/298 313/347/298 345/373/298 346/374/298
f 301/350/299 300/348/299 332/365/299 333/375/299
f 315/351/300 314/349/300 346/374/300 347/376/300
f 302/352/301 301/350/301 333/375/301 334/377/301
f 316/353/302 315/351/302 347/376/302 348/378/302
f 303/354/303 302/352/303 334/377/303 335/379/303
f 289/356/304 290/355/304 322/380/304 321/381/304
f 317/357/305 316/353/305 348/378/305 349/382/305
f 304/358/306 303/354/306 335/379/306 336/383/306
f 291/359/307 289/356/307 321/381/307 323/384/307
f 318/360/308 317/357/308 349/382/308 350/385/308
f 305/361/309 304/358/309 336/383/309 337/386/309
f 292/362/310 291/359/310 323/384/310 324/387/310
f 319/363/311 318/360/311 350/385/311 351/388/311
f 306/364/312 305/361/312 337/386/312 338/389/312
f 293/301/313 292/362/313 324/387/313 325/390/313
f 320/336/314 319/363/314 351/388/314 352/391/314
f 307/338/315 306/364/315 338/389/315 339/392/315
f 294/302/316 293/301/316 325/390/316 326/393/316
f 290/337/317 320/336/317 352/391/317 322/394/317
f 308/339/318 307/338/318 339/392/318 340/395/318
f 295/340/319 294/302/319 326/393/319 327/396/319
f 309/341/320 308/339/320 340/395/320 341/397/320
f 296/333/321 295/340/321 327/396/321 328/334/321
f 310/342/322 309/341/322 341/397/322 342/369/322
f 367/398/323 366/399/323 398/400/323 399/401/323
f 346/374/324 345/373/324 377/402/324 378/403/324
f 333/375/325 332/365/325 364/368/325 365/404/325
f 347/376/326 346/374/326 378/403/326 379/405/326
f 334/377/327 333/375/327 365/404/327 366/399/327
f 348/378/328 347/376/328 379/405/328 380/406/328
f 335/379/329 334/377/329 366/399/329 367/398/329
f 321/381/330 322/380/330 354/407/330 353/408/330
f 349/382/331 348/378/331 380/406/331 381/409/331
f 336/383/332 335/379/332 367/398/332 368/410/332
f 323/384/333 321/381/333 353/408/333 355/411/333
f 350/385/334 349/382/334 381/409/334 382/412/334
f 337/386/335 336/383/335 368/410/335 369/413/335
f 324/387/336 323/384/336 355/411/336 356/414/336
f 351/388/337 350/385/337 382/412/337 383/415/337
f 338/389/338 337/386/338 369/413/338 370/416/338
f 325/390/339 324/387/339 356/414/339 357/417/339
f 352/391/340 351/388/340 383/415/340 384/418/340
f 339/392/341 338/389/341 370/416/341 371/419/341
f 326/393/342 325/390/342 357/417/342 358/420/342
f 322/394/343 352/391/343 384/418/343 354/421/343
f 340/395/344 339/392/344 371/419/344 372/422/344
f 327/396/345 326/393/345 358/420/345 359/423/345
f 341/397/346 340/395/346 372/422/346 373/424/346
f 328/334/347 327/396/347 359/423/347 360/425/347
f 342/369/348 341/397/348 373/424/348 374/426/348
f 329/335/349 328/334/349 360/425/349 361/427/349
f 343/370/350 342/369/350 374/426/350 375/428/350
f 330/371/351 329/335/351 361/427/351 362/429/351
f 344/372/352 343/370/352 375/428/352 376/430/352
f 331/366/353 330/371/353 362/429/353 363/367/353
f 345/373/354 344/372/354 376/430/354 377/402/354
f 410/431/355 409/432/355 441/433/355 442/434/355
f 353/408/356 354/407/356 386/435/356 385/436/356
f 381/409/357 380/406/357 412/437/357 413/438/357
f 368/410/358 367/398/358 399/401/358 400/439/358
f 355/411/359 353/408/359 385/436/359 387/440/359
f 382/412/360 381/409/360 413/438/360 414/441/360
f 369/413/361 368/410/361 400/439/361 401/442/361
f 356/414/362 355/411/362 387/440/362 388/443/362
f 383/415/363 382/412/363 414/441/363 415/444/363
f 370/416/364 369/413/364 401/442/364 402/445/364
f 357/417/365 356/414/365 388/443/365 389/446/365
f 384/418/366 383/415/366 415/444/366 416/447/366
f 371/419/367 370/416/367 402/445/367 403/448/367
f 358/420/368 357/417/368 389/446/368 390/449/368
f 354/421/369 384/418/369 416/447/369 386/450/369
f 372/422/370 371/419/370 403/448/370 404/451/370
f 359/423/371 358/420/371 390/449/371 391/452/371
f 373/424/372 372/422/372 404/451/372 405/453/372
f 360/425/373 359/423/373 391/452/373 392/454/373
f 374/426/374 373/424/374 405/453/374 406/455/374
f 361/427/375 360/425/375 392/454/375 393/456/375
f 375/428/376 374/426/376 406/455/376 407/457/376
f 362/429/377 361/427/377 393/456/377 394/458/377
f 376/430/378 375/428/378 407/457/378 408/459/378
f 363/367/379 362/429/379 394/458/379 395/460/379
f 377/402/380 376/430/380 408/459/380 409/432/380
f 364/368/381 363/367/381 395/460/381 396/461/381
f 378/403/382 377/402/382 409/432/382 410/431/382
f 365/404/383 364/368/383 396/461/383 397/462/383
f 379/405/384 378/403/384 410/431/384 411/463/384
f 366/399/385 365/404/385 397/462/385 398/400/385
f 380/406/386 379/405/386 411/463/386 412/437/386
f 417/464/387 418/465/387 450/466/387 449/467/387
f 397/462/388 396/461/388 428/468/388 429/469/388
f 411/463/389 410/431/389 442/434/389 443/470/389
f 398/400/390 397/462/390 429/469/390 430/471/390
f 412/437/391 411/463/391 443/470/391 444/472/391
f 399/401/392 398/400/392 430/471/392 431/473/392
f 385/436/393 386/435/393 418/465/393 417/464/393
f 413/438/394 412/437/394 444/472/394 445/474/394
f 400/439/395 399/401/395 431/473/395 432/475/395
f 387/440/396 385/436/396 417/464/396 419/476/396
f 414/441/397 413/438/397 445/474/397 446/477/397
f 401/442/398 400/439/398 432/475/398 433/478/398
f 388/443/399 387/440/399 419/476/399 420/479/399
f 415/444/400 414/441/400 446/477/400 447/480/400
f 402/445/401 401/442/401 433/478/401 434/481/401
f 389/446/402 388/443/402 420/479/402 421/482/402
f 416/447/403 415/444/403 447/480/403 448/483/403
f 403/448/404 402/445/404 434/481/404 435/484/404
f 390/449/405 389/446/405 421/482/405 422/485/405
f 386/450/406 416/447/406 448/483/406 418/486/406
f 404/451/407 403/448/407 435/484/407 436/487/407
f 391/452/408 390/449/408 422/485/408 423/488/408
f 405/453/409 404/451/409 436/487/409 437/489/409
f 392/454/410 391/452/410 423/488/410 424/490/410
f 406/455/411 405/453/411 437/489/411 438/491/411
f 393/456/412 392/454/412 424/490/412 425/492/412
f 407/457/413 406/455/413 438/491/413 439/493/413
f 394/458/414 393/456/414 425/492/414 426/494/414
f 408/459/415 407/457/415 439/493/415 440/495/415
f 395/460/416 394/458/416 426/494/416 427/496/416
f 409/432/417 408/459/417 440/495/417 441/433/417
f 396/461/418 395/460/418 427/496/418 428/468/418
f 460/497/419 459/498/419 491/499/419 492/500/419
f 445/474/420 444/472/420 476/501/420 477/502/420
f 432/475/421 431/473/421 463/503/421 464/504/421
f 419/476/422 417/464/422 449/467/422 451/505/422
f 446/477/423 445/474/423 477/502/423 478/506/423
f 433/478/424 432/475/424 464/504/424 465/507/424
f 420/479/425 419/476/425 451/505/425 452/508/425
f 447/480/426 446/477/426 478/506/426 479/509/426
f 434/481/427 433/478/427 465/507/427 466/510/427
f 421/482/428 420/479/428 452/508/428 453/511/428
f 448/483/429 447/480/429 479/509/429 480/512/429
f 435/484/430 434/481/430 466/510/430 467/513/430
f 422/485/431 421/482/431 453/511/431 454/514/431
f 418/486/432 448/483/432 480/512/432 450/515/432
f 436/487/433 435/484/433 467/513/433 468/516/433
f 423/488/434 422/485/434 454/514/434 455/517/434
f 437/489/435 436/487/435 468/516/435 469/518/435
f 424/490/436 423/488/436 455/517/436 456/519/436
f 438/491/437 437/489/437 469/518/437 470/520/437
f 425/492/438 424/490/438 456/519/438 457/521/438
f 439/493/439 438/491/439 470/520/439 471/522/439
f 426/494/440 425/492/440 457/521/440 458/523/440
f 440/495/441 439/493/441 471/522/441 472/524/441
f 427/496/442 426/494/442 458/523/442 459/498/442
f 441/433/443 440/495/443 472/524/443 473/525/443
f 428/468/444 427/496/444 459/498/444 460/497/444
f 442/434/445 441/433/445 473/525/445 474/526/445
f 429/469/446 428/468/446 460/497/446 461/527/446
f 443/470/447 442/434/447 474/526/447 475/528/447
f 430/471/448 429/469/448 461/527/448 462/529/448
f 444/472/449 443/470/449 475/528/449 476/501/449
f 431/473/450 430/471/450 462/529/450 463/503/450
f 489/530/451 488/531/451 520/532/451 521/533/451
f 474/526/452 473/525/452 505/534/452 506/535/452
f 461/527/453 460/497/453 492/500/453 493/536/453
f 475/528/454 474/526/454 506/535/454 507/537/454
f 462/529/455 461/527/455 493/536/455 494/538/455
f 476/501/456 475/528/456 507/537/456 508/539/456
f 463/503/457 462/529/457 494/538/457 495/540/457
f 449/467/458 450/466/458 482/541/458 481/542/458
f 477/502/459 476/501/459 508/539/459 509/543/459
f 464/504/460 463/503/460 495/540/460 496/544/460
f 451/505/461 449/467/461 481/542/461 483/545/461
f 478/506/462 477/502/462 509/543/462 510/546/462
f 465/507/463 464/504/463 496/544/463 497/547/463
f 452/508/464 451/505/464 483/545/464 484/548/464
f 479/509/465 478/506/465 510/546/465 511/549/465
f 466/510/466 465/507/466 497/547/466 498/550/466
f 453/511/467 452/508/467 484/548/467 485/551/467
f 480/512/468 479/509/468 511/549/468 512/552/468
f 467/513/469 466/510/469 498/550/469 499/553/469
f 454/514/470 453/511/470 485/551/470 486/554/470
f 450/515/471 480/512/471 512/552/471 482/555/471
f 468/516/472 467/513/472 499/553/472 500/556/472
f 455/517/473 454/514/473 486/554/473 487/557/473
f 469/518/474 468/516/474 500/556/474 501/558/474
f 456/519/475 455/517/475 487/557/475 488/531/475
f 470/520/476 469/518/476 501/558/476 502/559/476
f 457/521/477 456/519/477 488/531/477 489/530/477
f 471/522/478 470/520/478 502/559/478 503/560/478
f 458/523/479 457/521/479 489/530/479 490/561/479
f 472/524/480 471/522/480 503/560/480 504/562/480
f 459/498/481 458/523/481 490/561/481 491/499/481
f 473/525/482 472/524/482 504/562/482 505/534/482
f 524/563/483 523/564/483 555/565/483 556/566/483
f 503/560/484 502/559/484 534/567/484 535/568/484
f 490/561/485 489/530/485 521/533/485 522/569/485
f 504/562/486 503/560/486 535/568/486 536/570/486
f 491/499/487 490/561/487 522/569/487 523/564/487
f 505/534/488 504/562/488 536/570/488 537/571/488
f 492/500/489 491/499/489 523/564/489 524/563/489
f 506/535/490 505/534/490 537/571/490 538/572/490
f 493/536/491 492/500/491 524/563/491 525/573/491
f 507/537/492 506/535/492 538/572/492 539/574/492
f 494/538/493 493/536/493 525/573/493 526/575/493
f 508/539/494 507/537/494 539/574/494 540/576/494
f 495/540/495 494/538/495 526/575/495 527/577/495
f 481/542/496 482/541/496 514/578/496 513/579/496
f 509/543/497 508/539/497 540/576/497 541/580/497
f 496/544/498 495/540/498 527/577/498 528/581/498
f 483/545/499 481/542/499 513/579/499 515/582/499
f 510/546/500 509/543/500 541/580/500 542/583/500
f 497/547/501 496/544/501 528/581/501 529/584/501
f 484/548/502 483/545/502 515/582/502 516/585/502
f 511/549/503 510/546/503 542/583/503 543/586/503
f 498/550/504 497/547/504 529/584/504 530/587/504
f 485/551/505 484/548/505 516/585/505 517/588/505
f 512/552/506 511/549/506 543/586/506 544/589/506
f 499/553/507 498/550/507 530/587/507 531/590/507
f 486/554/508 485/551/508 517/588/508 518/591/508
f 482/555/509 512/552/509 544/589/509 514/592/509
f 500/556/510 499/553/510 531/590/510 532/593/510
f 487/557/511 486/554/511 518/591/511 519/594/511
f 501/558/512 500/556/512 532/593/512 533/595/512
f 488/531/513 487/557/513 519/594/513 520/532/513
f 502/559/514 501/558/514 533/595/514 534/567/514
f 559/596/515 558/597/515 590/598/515 591/599/515
f 538/572/516 537/571/516 569/600/516 570/601/516
f 525/573/517 524/563/517 556/566/517 557/602/517
f 539/574/518 538/572/518 570/601/518 571/603/518
f 526/575/519 525/573/519 557/602/519 558/597/519
f 540/576/520 539/574/520 571/603/520 572/604/520
f 527/577/521 526/575/521 558/597/521 559/596/521
f 513/579/522 514/578/522 546/605/522 545/606/522
f 541/580/523 540/576/523 572/604/523 573/607/523
f 528/581/524 527/577/524 559/596/524 560/608/524
f 515/582/525 513/579/525 545/606/525 547/609/525
f 542/583/526 541/580/526 573/607/526 574/610/526
f 529/584/527 528/581/527 560/608/527 561/611/527
f 516/585/528 515/582/528 547/609/528 548/612/528
f 543/586/529 542/583/529 574/610/529 575/613/529
f 530/587/530 529/584/530 561/611/530 562/614/530
f 517/588/531 516/585/531 548/612/531 549/615/531
f 544/589/532 543/586/532 575/613/532 576/616/532
f 531/590/533 530/587/533 562/614/533 563/617/533
f 518/591/534 517/588/534 549/615/534 550/618/534
f 514/592/535 544/589/535 576/616/535 546/619/535
f 532/593/536 531/590/536 563/617/536 564/620/536
f 519/594/537 518/591/537 550/618/537 551/621/537
f 533/595/538 532/593/538 564/620/538 565/622/538
f 520/532/539 519/594/539 551/621/539 552/623/539
f 534/567/540 533/595/540 565/622/540 566/624/540
f 521/533/541 520/532/541 552/623/541 553/625/541
f 535/568/542 534/567/542 566/624/542 567/626/542
f 522/569/543 521/533/543 553/625/543 554/627/543
f 536/570/544 535/568/544 567/626/544 568/628/544
f 523/564/545 522/569/545 554/627/545 555/565/545
f 537/571/546 536/570/546 568/628/546 569/600/546
f 594/629/547 593/630/547 625/631/547 626/632/547
f 545/606/548 546/605/548 578/633/548 577/634/548
f 573/607/549 572/604/549 604/635/549 605/636/549
f 560/608/550 559/596/550 591/599/550 592/637/550
f 547/609/551 545/606/551 577/634/551 579/638/551
f 574/610/552 573/607/552 605/636/552 606/639/552
f 561/611/553 560/608/553 592/637/553 593/630/553
f 548/612/554 547/609/554 579/638/554 580/640/554
f 575/613/555 574/610/555 606/639/555 607/641/555
f 562/614/556 561/611/556 593/630/556 594/629/556
f 549/615/557 548/612/557 580/640/557 581/642/557
f 576/616/558 575/613/558 607/641/558 608/643/558
f 563/617/559 562/614/559 594/629/559 595/644/559
f 550/618/560 549/615/560 581/642/560 582/645/560
f 546/619/561 576/616/561 608/643/561 578/646/561
f 564/620/562 563/617/562 595/644/562 596/647/562
f 551/621/563 550/618/563 582/645/563 583/648/563
f 565/622/564 564/620/564 596/647/564 597/649/564
f 552/623/565 551/621/565 583/648/565 584/650/565
f 566/624/566 565/622/566 597/649/566 598/651/566
f 553/625/567 552/623/567 584/650/567 585/652/567
f 567/626/568 566/624/568 598/651/568 599/653/568
f 554/627/569 553/625/569 585/652/569 586/654/569
f 568/628/570 567/626/570 599/653/570 600/655/570
f 555/565/571 554/627/571 586/654/571 587/656/571
f 569/600/572 568/628/572 600/655/572 601/657/572
f 556/566/573 555/565/573 587/656/573 588/658/573
f 570/601/574 569/600/574 601/657/574 602/659/574
f 557/602/575 556/566/575 588/658/575 589/660/575
f 571/603/576 570/601/576 602/659/576 603/661/576
f 558/597/577 557/602/577 589/660/577 590/598/577
f 572/604/578 571/603/578 603/661/578 604/635/578
f 629/662/579 628/663/579 660/664/579 661/665/579
f 581/642/580 580/640/580 612/666/580 613/667/580
f 608/643/581 607/641/581 639/668/581 640/669/581
f 595/644/582 594/629/582 626/632/582 627/670/582
f 582/645/583 581/642/583 613/667/583 614/671/583
f 578/646/584 608/643/584 640/669/584 610/672/584
f 596/647/585 595/644/585 627/670/585 628/663/585
f 583/648/586 582/645/586 614/671/586 615/673/586
f 597/649/587 596/647/587 628/663/587 629/662/587
f 584/650/588 583/648/588 615/673/588 616/674/588
f 598/651/589 597/649/589 629/662/589 630/675/589
f 585/652/590 584/650/590 616/674/590 617/676/590
f 599/653/591 598/651/591 630/675/591 631/677/591
f 586/654/592 585/652/592 617/676/592 618/678/592
f 600/655/593 599/653/593 631/677/593 632/679/593
f 587/656/594 586/654/594 618/678/594 619/680/594
f 601/657/595 600/655/595 632/679/595 633/681/595
f 588/658/596 587/656/596 619/680/596 620/682/596
f 602/659/597 601/657/597 633/681/597 634/683/597
f 589/660/598 588/658/598 620/682/598 621/684/598
f 603/661/599 602/659/599 634/683/599 635/685/599
f 590/598/600 589/660/600 621/684/600 622/686/600
f 604/635/601 603/661/601 635/685/601 636/687/601
f 591/599/602 590/598/602 622/686/602 623/688/602
f 577/634/603 578/633/603 610/689/603 609/690/603
f 605/636/604 604/635/604 636/687/604 637/691/604
f 592/637/605 591/599/605 623/688/605 624/692/605
f 579/638/606 577/634/606 609/690/606 611/693/606
f 606/639/607 605/636/607 637/691/607 638/694/607
f 593/630/608 592/637/608 624/692/608 625/631/608
f 580/640/609 579/638/609 611/693/609 612/666/609
f 607/641/610 606/639/610 638/694/610 639/668/610
f 664/695/611 663/696/611 695/697/611 696/698/611
f 616/674/612 615/673/612 647/699/612 648/700/612
f 630/675/613 629/662/613 661/665/613 662/701/613
f 617/676/614 616/674/614 648/700/614 649/702/614
f 631/677/615 630/675/615 662/701/615 663/696/615
f 618/678/616 617/676/616 649/702/616 650/703/616
f 632/679/617 631/677/617 663/696/617 664/695/617
f 619/680/618 618/678/618 650/703/618 651/704/618
f 633/681/619 632/679/619 664/695/619 665/705/619
f 620/682/620 619/680/620 651/704/620 652/706/620
f 634/683/621 633/681/621 665/705/621 666/707/621
f 621/684/622 620/682/622 652/706/622 653/708/622
f 635/685/623 634/683/623 666/707/623 667/709/623
f 622/686/624 621/684/624 653/708/624 654/710/624
f 636/687/625 635/685/625 667/709/625 668/711/625
f 623/688/626 622/686/626 654/710/626 655/712/626
f 609/690/627 610/689/627 642/713/627 641/714/627
f 637/691/628 636/687/628 668/711/628 669/715/628
f 624/692/629 623/688/629 655/712/629 656/716/629
f 611/693/630 609/690/630 641/714/630 643/717/630
f 638/694/631 637/691/631 669/715/631 670/718/631
f 625/631/632 624/692/632 656/716/632 657/719/632
f 612/666/633 611/693/633 643/717/633 644/720/633
f 639/668/634 638/694/634 670/718/634 671/721/634
f 626/632/635 625/631/635 657/719/635 658/722/635
f 613/667/636 612/666/636 644/720/636 645/723/636
f 640/669/637 639/668/637 671/721/637 672/724/637
f 627/670/638 626/632/638 658/722/638 659/725/638
f 614/671/639 613/667/639 645/723/639 646/726/639
f 610/672/640 640/669/640 672/724/640 642/727/640
f 628/663/641 627/670/641 659/725/641 660/664/641
f 615/673/642 614/671/642 646/726/642 647/699/642
f 699/728/643 698/729/643 730/730/643 731/731/643
f 651/704/644 650/703/644 682/732/644 683/733/644
f 665/705/645 664/695/645 696/698/645 697/734/645
f 652/706/646 651/704/646 683/733/646 684/735/646
f 666/707/647 665/705/647 697/734/647 698/729/647
f 653/708/648 652/706/648 684/735/648 685/736/648
f 667/709/649 666/707/649 698/729/649 699/728/649
f 654/710/650 653/708/650 685/736/650 686/737/650
f 668/711/651 667/709/651 699/728/651 700/738/651
f 655/712/652 654/710/652 686/737/652 687/739/652
f 641/714/653 642/713/653 674/740/653 673/741/653
f 669/715/654 668/711/654 700/738/654 701/742/654
f 656/716/655 655/712/655 687/739/655 688/743/655
f 643/717/656 641/714/656 673/741/656 675/744/656
f 670/718/657 669/715/657 701/742/657 702/745/657
f 657/719/658 656/716/658 688/743/658 689/746/658
f 644/720/659 643/717/659 675/744/659 676/747/659
f 671/721/660 670/718/660 702/745/660 703/748/660
f 658/722/661 657/719/661 689/746/661 690/749/661
f 645/723/662 644/720/662 676/747/662 677/750/662
f 672/724/663 671/721/663 703/748/663 704/751/663
f 659/725/664 658/722/664 690/749/664 691/752/664
f 646/726/665 645/723/665 677/750/665 678/753/665
f 642/727/666 672/724/666 704/751/666 674/754/666
f 660/664/667 659/725/667 691/752/667 692/755/667
f 647/699/668 646/726/668 678/753/668 679/756/668
f 661/665/669 660/664/669 692/755/669 693/757/669
f 648/700/670 647/699/670 679/756/670 680/758/670
f 662/701/671 661/665/671 693/757/671 694/759/671
f 649/702/672 648/700/672 680/758/672 681/760/672
f 663/696/673 662/701/673 694/759/673 695/697/673
f 650/703/674 649/702/674 681/760/674 682/732/674
f 734/761/675 733/762/675 765/763/675 766/764/675
f 686/737/676 685/736/676 717/765/676 718/766/676
f 700/738/677 699/728/677 731/731/677 732/767/677
f 687/739/678 686/737/678 718/766/678 719/768/678
f 673/741/679 674/740/679 706/769/679 705/770/679
f 701/742/680 700/738/680 732/767/680 733/762/680
f 688/743/681 687/739/681 719/768/681 720/771/681
f 675/744/682 673/741/682 705/770/682 707/772/682
f 702/745/683 701/742/683 733/762/683 734/761/683
f 689/746/684 688/743/684 720/771/684 721/773/684
f 676/747/685 675/744/685 707/772/685 708/774/685
f 703/748/686 702/745/686 734/761/686 735/775/686
f 690/749/687 689/746/687 721/773/687 722/776/687
f 677/750/688 676/747/688 708/774/688 709/777/688
f 704/751/689 703/748/689 735/775/689 736/778/689
f 691/752/690 690/749/690 722/776/690 723/779/690
f 678/753/691 677/750/691 709/777/691 710/780/691
f 674/754/692 704/751/692 736/778/692 706/781/692
f 692/755/693 691/752/693 723/779/693 724/782/693
f 679/756/694 678/753/694 710/780/694 711/783/694
f 693/757/695 692/755/695 724/782/695 725/784/695
f 680/758/696 679/756/696 711/783/696 712/785/696
f 694/759/697 693/757/697 725/784/697 726/786/697
f 681/760/698 680/758/698 712/785/698 713/787/698
f 695/697/699 694/759/699 726/786/699 727/788/699
f 682/732/700 681/760/700 713/787/700 714/789/700
f 696/698/701 695/697/701 727/788/701 728/790/701
f 683/733/702 682/732/702 714/789/702 715/791/702
f 697/734/703 696/698/703 728/790/703 729/792/703
f 684/735/704 683/733/704 715/791/704 716/793/704
f 698/729/705 697/734/705 729/792/705 730/730/705
f 685/736/706 684/735/706 716/793/706 717/765/706
f 759/794/22 758/795/22 790/796/22 791/797/22
f 721/773/707 720/771/707 752/798/707 753/799/707
f 708/774/708 707/772/708 739/800/708 740/801/708
f 735/775/709 734/761/709 766/764/709 767/802/709
f 722/776/710 721/773/710 753/799/710 754/803/710
f 709/777/711 708/774/711 740/801/711 741/804/711
f 736/778/712 735/775/712 767/802/712 768/805/712
f 723/779/713 722/776/713 754/803/713 755/806/713
f 710/780/714 709/777/714 741/804/714 742/807/714
f 706/781/715 736/778/715 768/805/715 738/808/715
f 724/782/716 723/779/716 755/806/716 756/809/716
f 711/783/717 710/780/717 742/807/717 743/810/717
f 725/784/718 724/782/718 756/809/718 757/811/718
f 712/785/719 711/783/719 743/810/719 744/812/719
f 726/786/720 725/784/720 757/811/720 758/795/720
f 713/787/721 712/785/721 744/812/721 745/813/721
f 727/788/722 726/786/722 758/795/722 759/794/722
f 714/789/723 713/787/723 745/813/723 746/814/723
f 728/790/724 727/788/724 759/794/724 760/815/724
f 715/791/725 714/789/725 746/814/725 747/816/725
f 729/792/726 728/790/726 760/815/726 761/817/726
f 716/793/727 715/791/727 747/816/727 748/818/727
f 730/730/728 729/792/728 761/817/728 762/819/728
f 717/765/729 716/793/729 748/818/729 749/820/729
f 731/731/730 730/730/730 762/819/730 763/821/730
f 718/766/731 717/765/731 749/820/731 750/822/731
f 732/767/732 731/731/732 763/821/732 764/823/732
f 719/768/733 718/766/733 750/822/733 751/824/733
f 705/770/734 706/769/734 738/825/734 737/826/734
f 733/762/735 732/767/735 764/823/735 765/763/735
f 720/771/736 719/768/736 751/824/736 752/798/736
f 707/772/737 705/770/737 737/826/737 739/800/737
f 769/827/738 770/828/738 800/829/738 799/830/738 798/831/738 797/832/738 796/833/738 795/834/738 794/835/738 793/836/738 792/837/738 791/838/738 790/839/738 789/840/738 788/841/738 787/842/738 786/843/738 785/844/738 784/845/738 783/846/738 782/847/738 781/848/738 780/849/738 779/850/738 778/851/738 777/852/738 776/853/738 775/854/738 774/855/738 773/856/738 772/857/738 771/858/738
f 746/814/9 745/813/9 777/859/9 778/860/9
f 760/815/23 759/794/23 791/797/23 792/861/23
f 747/816/10 746/814/10 778/860/10 779/862/10
f 761/817/24 760/815/24 792/861/24 793/863/24
f 748/818/11 747/816/11 779/862/11 780/864/11
f 762/819/25 761/817/25 793/863/25 794/865/25
f 749/820/12 748/818/12 780/864/12 781/866/12
f 763/821/26 762/819/26 794/865/26 795/867/26
f 750/822/13 749/820/13 781/866/13 782/868/13
f 764/823/27 763/821/27 795/867/27 796/869/27
f 751/824/14 750/822/14 782/868/14 783/870/14
f 737/826/1 738/825/1 770/871/1 769/872/1
f 765/763/28 764/823/28 796/869/28 797/873/28
f 752/798/15 751/824/15 783/870/15 784/874/15
f 739/800/2 737/826/2 769/872/2 771/875/2
f 766/764/29 765/763/29 797/873/29 798/876/29
f 753/799/16 752/798/16 784/874/16 785/877/16
f 740/801/3 739/800/3 771/875/3 772/878/3
f 767/802/30 766/764/30 798/876/30 799/879/30
f 754/803/17 753/799/17 785/877/17 786/880/17
f 741/804/4 740/801/4 772/878/4 773/881/4
f 768/805/32 767/802/32 799/879/32 800/882/32
f 755/806/18 754/803/18 786/880/18 787/883/18
f 742/807/5 741/804/5 773/881/5 774/884/5
f 738/808/33 768/805/33 800/882/33 770/885/33
f 756/809/19 755/806/19 787/883/19 788/886/19
f 743/810/6 742/807/6 774/884/6 775/887/6
f 757/811/20 756/809/20 788/886/20 789/888/20
f 744/812/7 743/810/7 775/887/7 776/889/7
f 758/795/21 757/811/21 789/888/21 790/796/21
f 745/813/8 744/812/8 776/889/8 777/859/8
